% $ biblatex auxiliary file $
% $ biblatex bbl format version 3.1 $
% Do not modify the above lines!
%
% This is an auxiliary file used by the 'biblatex' package.
% This file may safely be deleted. It will be recreated by
% biber as required.
%
\begingroup
\makeatletter
\@ifundefined{ver@biblatex.sty}
  {\@latex@error
     {Missing 'biblatex' package}
     {The bibliography requires the 'biblatex' package.}
      \aftergroup\endinput}
  {}
\endgroup


\refsection{0}
  \datalist[entry]{anyt/global//global/global}
    \entry{VSNR}{article}{}
      \name{author}{2}{}{%
        {{un=0,uniquepart=base,hash=52a422f501ab24ced4fed94ce0226e40}{%
           family={Chandler},
           familyi={C\bibinitperiod},
           given={D.\bibnamedelimi M.},
           giveni={D\bibinitperiod\bibinitdelim M\bibinitperiod},
           givenun=0}}%
        {{un=0,uniquepart=base,hash=e4622e95fefb83373d9614ae9c8ce220}{%
           family={Hemami},
           familyi={H\bibinitperiod},
           given={S.\bibnamedelimi S.},
           giveni={S\bibinitperiod\bibinitdelim S\bibinitperiod},
           givenun=0}}%
      }
      \strng{namehash}{1ea3294ab1b80857b24a400ac4e1c519}
      \strng{fullhash}{1ea3294ab1b80857b24a400ac4e1c519}
      \strng{bibnamehash}{1ea3294ab1b80857b24a400ac4e1c519}
      \strng{authorbibnamehash}{1ea3294ab1b80857b24a400ac4e1c519}
      \strng{authornamehash}{1ea3294ab1b80857b24a400ac4e1c519}
      \strng{authorfullhash}{1ea3294ab1b80857b24a400ac4e1c519}
      \field{labelalpha}{CH07}
      \field{sortinit}{C}
      \field{sortinithash}{4c244ceae61406cdc0cc2ce1cb1ff703}
      \field{labelnamesource}{author}
      \field{labeltitlesource}{title}
      \field{journaltitle}{IEEE Transactions on Image Processing}
      \field{title}{VSNR: A Wavelet-Based Visual Signal-to-Noise Ratio for Natural Images,}
      \field{year}{2007}
    \endentry
    \entry{10.1145/563274.563323}{inproceedings}{}
      \name{author}{1}{}{%
        {{un=0,uniquepart=base,hash=e3387bbc3a6d2ade03de745a4391981f}{%
           family={Clark},
           familyi={C\bibinitperiod},
           given={James\bibnamedelima H.},
           giveni={J\bibinitperiod\bibinitdelim H\bibinitperiod},
           givenun=0}}%
      }
      \list{location}{1}{%
        {Philadelphia, Pennsylvania}%
      }
      \list{publisher}{1}{%
        {Association for Computing Machinery}%
      }
      \strng{namehash}{e3387bbc3a6d2ade03de745a4391981f}
      \strng{fullhash}{e3387bbc3a6d2ade03de745a4391981f}
      \strng{bibnamehash}{e3387bbc3a6d2ade03de745a4391981f}
      \strng{authorbibnamehash}{e3387bbc3a6d2ade03de745a4391981f}
      \strng{authornamehash}{e3387bbc3a6d2ade03de745a4391981f}
      \strng{authorfullhash}{e3387bbc3a6d2ade03de745a4391981f}
      \field{labelalpha}{Cla76}
      \field{sortinit}{C}
      \field{sortinithash}{4c244ceae61406cdc0cc2ce1cb1ff703}
      \field{labelnamesource}{author}
      \field{labeltitlesource}{title}
      \field{booktitle}{Proceedings of the 3rd Annual Conference on Computer Graphics and Interactive Techniques}
      \field{isbn}{9781450373531}
      \field{series}{SIGGRAPH ’76}
      \field{title}{Hierarchical Geometric Models for Visible-Surface Algorithms}
      \field{year}{1976}
      \field{pages}{267}
      \range{pages}{1}
      \verb{doi}
      \verb 10.1145/563274.563323
      \endverb
      \verb{urlraw}
      \verb https://doi-org.eaccess.ub.tum.de/10.1145/563274.563323
      \endverb
      \verb{url}
      \verb https://doi-org.eaccess.ub.tum.de/10.1145/563274.563323
      \endverb
    \endentry
    \entry{doi:10.1111/cgf.12001}{article}{}
      \name{author}{6}{}{%
        {{un=0,uniquepart=base,hash=7292f673b83c013e88de0db258978f14}{%
           family={Corsini},
           familyi={C\bibinitperiod},
           given={M.},
           giveni={M\bibinitperiod},
           givenun=0}}%
        {{un=0,uniquepart=base,hash=680bc44cb33127229825426c7d7cbfa1}{%
           family={Larabi},
           familyi={L\bibinitperiod},
           given={M.\bibnamedelimi C.},
           giveni={M\bibinitperiod\bibinitdelim C\bibinitperiod},
           givenun=0}}%
        {{un=0,uniquepart=base,hash=267afa3ef8703eb5724d43c09b9f8e5e}{%
           family={Lavoué},
           familyi={L\bibinitperiod},
           given={G.},
           giveni={G\bibinitperiod},
           givenun=0}}%
        {{un=0,uniquepart=base,hash=b08f4678b8d2053bf8ec3550395bbe92}{%
           family={Petřík},
           familyi={P\bibinitperiod},
           given={O.},
           giveni={O\bibinitperiod},
           givenun=0}}%
        {{un=0,uniquepart=base,hash=7be5e153247728ce830047fa4ba82b2f}{%
           family={Váša},
           familyi={V\bibinitperiod},
           given={L.},
           giveni={L\bibinitperiod},
           givenun=0}}%
        {{un=0,uniquepart=base,hash=33b4ceeaa068e0ff0791079d2b905b6d}{%
           family={Wang},
           familyi={W\bibinitperiod},
           given={K.},
           giveni={K\bibinitperiod},
           givenun=0}}%
      }
      \strng{namehash}{8e69c9858462c2277c4763fb97c601f0}
      \strng{fullhash}{05f053f1393816eecded642b116426a6}
      \strng{bibnamehash}{05f053f1393816eecded642b116426a6}
      \strng{authorbibnamehash}{05f053f1393816eecded642b116426a6}
      \strng{authornamehash}{8e69c9858462c2277c4763fb97c601f0}
      \strng{authorfullhash}{05f053f1393816eecded642b116426a6}
      \field{labelalpha}{Cor+13}
      \field{sortinit}{C}
      \field{sortinithash}{4c244ceae61406cdc0cc2ce1cb1ff703}
      \field{labelnamesource}{author}
      \field{labeltitlesource}{title}
      \field{journaltitle}{Computer Graphics Forum}
      \field{number}{1}
      \field{title}{Perceptual Metrics for Static and Dynamic Triangle Meshes}
      \field{volume}{32}
      \field{year}{2013}
      \field{pages}{101\bibrangedash 125}
      \range{pages}{25}
      \verb{doi}
      \verb 10.1111/cgf.12001
      \endverb
      \verb{eprint}
      \verb https://onlinelibrary.wiley.com/doi/pdf/10.1111/cgf.12001
      \endverb
      \verb{urlraw}
      \verb https://onlinelibrary.wiley.com/doi/abs/10.1111/cgf.12001
      \endverb
      \verb{url}
      \verb https://onlinelibrary.wiley.com/doi/abs/10.1111/cgf.12001
      \endverb
      \keyw{metric,distortion,perception,mesh,surface,evaluation,watermarking,compression,simplification,human vision,animation,comparison,Categories and Subject Descriptors (according to ACM CCS): Models and Principles H.1.2: User/Machine Systems Human Factors}
    \endentry
    \entry{fourier}{article}{}
      \name{author}{2}{}{%
        {{un=0,uniquepart=base,hash=8408d39a84554ac573a5dc081a74867f}{%
           family={Campbell},
           familyi={C\bibinitperiod},
           given={F.W.},
           giveni={F\bibinitperiod},
           givenun=0}}%
        {{un=0,uniquepart=base,hash=760d7f8784d0f81e2ebb9579e515c2f0}{%
           family={Robson},
           familyi={R\bibinitperiod},
           given={J.G.},
           giveni={J\bibinitperiod},
           givenun=0}}%
      }
      \strng{namehash}{ef25dae8ecefc4ae074ade1236aa4c44}
      \strng{fullhash}{ef25dae8ecefc4ae074ade1236aa4c44}
      \strng{bibnamehash}{ef25dae8ecefc4ae074ade1236aa4c44}
      \strng{authorbibnamehash}{ef25dae8ecefc4ae074ade1236aa4c44}
      \strng{authornamehash}{ef25dae8ecefc4ae074ade1236aa4c44}
      \strng{authorfullhash}{ef25dae8ecefc4ae074ade1236aa4c44}
      \field{labelalpha}{CR68}
      \field{sortinit}{C}
      \field{sortinithash}{4c244ceae61406cdc0cc2ce1cb1ff703}
      \field{labelnamesource}{author}
      \field{labeltitlesource}{title}
      \field{journaltitle}{Journal of Physiology}
      \field{title}{Application of fourier analysis to the visibility of gratings}
      \field{year}{1968}
      \verb{doi}
      \verb 10.1113/jphysiol.1968.sp008574
      \endverb
    \endentry
    \entry{1049-5258}{article}{}
      \name{author}{2}{}{%
        {{un=0,uniquepart=base,hash=a2592de90eb2a31bb0c1d780a8c05a72}{%
           family={Dosovitskiy},
           familyi={D\bibinitperiod},
           given={A.},
           giveni={A\bibinitperiod},
           givenun=0}}%
        {{un=0,uniquepart=base,hash=6ea4130678efce0f25d7dbea53024f14}{%
           family={Brox},
           familyi={B\bibinitperiod},
           given={T.},
           giveni={T\bibinitperiod},
           givenun=0}}%
      }
      \strng{namehash}{9d8463dbc8c10e658bc3ff758b9cc7b2}
      \strng{fullhash}{9d8463dbc8c10e658bc3ff758b9cc7b2}
      \strng{bibnamehash}{9d8463dbc8c10e658bc3ff758b9cc7b2}
      \strng{authorbibnamehash}{9d8463dbc8c10e658bc3ff758b9cc7b2}
      \strng{authornamehash}{9d8463dbc8c10e658bc3ff758b9cc7b2}
      \strng{authorfullhash}{9d8463dbc8c10e658bc3ff758b9cc7b2}
      \field{labelalpha}{DB16}
      \field{sortinit}{D}
      \field{sortinithash}{c438b3d5d027251ba63f5ed538d98af5}
      \field{labelnamesource}{author}
      \field{labeltitlesource}{title}
      \field{journaltitle}{Advances in Neural Information Processing Systems}
      \field{title}{Generating images with perceptual similarity metrics based on deep networks}
      \field{year}{2016}
    \endentry
    \entry{10.1145/54852.378468}{inproceedings}{}
      \name{author}{5}{}{%
        {{un=0,uniquepart=base,hash=4ea19afa5cc13f212fe3f2073afd94a8}{%
           family={Deering},
           familyi={D\bibinitperiod},
           given={Michael},
           giveni={M\bibinitperiod},
           givenun=0}}%
        {{un=0,uniquepart=base,hash=486ef1ee27598ad69bb97e51cca74115}{%
           family={Winner},
           familyi={W\bibinitperiod},
           given={Stephanie},
           giveni={S\bibinitperiod},
           givenun=0}}%
        {{un=0,uniquepart=base,hash=a116f8a1270bfad2f318ad10ea10702e}{%
           family={Schediwy},
           familyi={S\bibinitperiod},
           given={Bic},
           giveni={B\bibinitperiod},
           givenun=0}}%
        {{un=0,uniquepart=base,hash=4d7ca11540c6cb7c1fe7b97e4426ad3a}{%
           family={Duffy},
           familyi={D\bibinitperiod},
           given={Chris},
           giveni={C\bibinitperiod},
           givenun=0}}%
        {{un=0,uniquepart=base,hash=15380ab50a79b223e10c63d522cf567d}{%
           family={Hunt},
           familyi={H\bibinitperiod},
           given={Neil},
           giveni={N\bibinitperiod},
           givenun=0}}%
      }
      \list{location}{1}{%
        {New York, NY, USA}%
      }
      \list{publisher}{1}{%
        {Association for Computing Machinery}%
      }
      \strng{namehash}{c5eb40358b4fc9bc556ce9c9a89a2f38}
      \strng{fullhash}{afde31bb66c70e19f36d94e417500481}
      \strng{bibnamehash}{afde31bb66c70e19f36d94e417500481}
      \strng{authorbibnamehash}{afde31bb66c70e19f36d94e417500481}
      \strng{authornamehash}{c5eb40358b4fc9bc556ce9c9a89a2f38}
      \strng{authorfullhash}{afde31bb66c70e19f36d94e417500481}
      \field{labelalpha}{Dee+88}
      \field{sortinit}{D}
      \field{sortinithash}{c438b3d5d027251ba63f5ed538d98af5}
      \field{labelnamesource}{author}
      \field{labeltitlesource}{title}
      \field{booktitle}{Proceedings of the 15th Annual Conference on Computer Graphics and Interactive Techniques}
      \field{isbn}{0897912756}
      \field{series}{SIGGRAPH ’88}
      \field{title}{The Triangle Processor and Normal Vector Shader: A VLSI System for High Performance Graphics}
      \field{year}{1988}
      \field{pages}{21\bibrangedash 30}
      \range{pages}{10}
      \verb{doi}
      \verb 10.1145/54852.378468
      \endverb
      \verb{urlraw}
      \verb https://doi-org.eaccess.ub.tum.de/10.1145/54852.378468
      \endverb
      \verb{url}
      \verb https://doi-org.eaccess.ub.tum.de/10.1145/54852.378468
      \endverb
      \keyw{real-time image display,shading,graphics VLSI,hardware lighting models,triangle processor,interpolation}
    \endentry
    \entry{doi:10.1007/s11760-009-0144-1}{article}{}
      \name{author}{2}{}{%
        {{un=0,uniquepart=base,hash=bc90df1d9c896fa877fdfd4bd5af9db1}{%
           family={Dosselmann},
           familyi={D\bibinitperiod},
           given={Richard},
           giveni={R\bibinitperiod},
           givenun=0}}%
        {{un=0,uniquepart=base,hash=390fb859dddc3d32c39406b37ea53ab9}{%
           family={Yang},
           familyi={Y\bibinitperiod},
           given={Xue\bibnamedelima Dong},
           giveni={X\bibinitperiod\bibinitdelim D\bibinitperiod},
           givenun=0}}%
      }
      \strng{namehash}{251d85c227c3c362f272f9e16fb1f9e2}
      \strng{fullhash}{251d85c227c3c362f272f9e16fb1f9e2}
      \strng{bibnamehash}{251d85c227c3c362f272f9e16fb1f9e2}
      \strng{authorbibnamehash}{251d85c227c3c362f272f9e16fb1f9e2}
      \strng{authornamehash}{251d85c227c3c362f272f9e16fb1f9e2}
      \strng{authorfullhash}{251d85c227c3c362f272f9e16fb1f9e2}
      \field{labelalpha}{DY11}
      \field{sortinit}{D}
      \field{sortinithash}{c438b3d5d027251ba63f5ed538d98af5}
      \field{labelnamesource}{author}
      \field{labeltitlesource}{title}
      \field{journaltitle}{Signal, Image and Video Processing}
      \field{title}{A comprehensive assessment of the structural similarity index}
      \field{year}{2011}
    \endentry
    \entry{10.1145/1275808.1276412}{inproceedings}{}
      \name{author}{4}{}{%
        {{un=0,uniquepart=base,hash=16516ed79438b8f310bda91eb0cadc2f}{%
           family={Han},
           familyi={H\bibinitperiod},
           given={Charles},
           giveni={C\bibinitperiod},
           givenun=0}}%
        {{un=0,uniquepart=base,hash=115afe6cc7f667cde499464315bf3ce5}{%
           family={Sun},
           familyi={S\bibinitperiod},
           given={Bo},
           giveni={B\bibinitperiod},
           givenun=0}}%
        {{un=0,uniquepart=base,hash=e7e274981ceb0dd123d44af35cc7bedf}{%
           family={Ramamoorthi},
           familyi={R\bibinitperiod},
           given={Ravi},
           giveni={R\bibinitperiod},
           givenun=0}}%
        {{un=0,uniquepart=base,hash=592cb4a159c63f592d458feacf4936fd}{%
           family={Grinspun},
           familyi={G\bibinitperiod},
           given={Eitan},
           giveni={E\bibinitperiod},
           givenun=0}}%
      }
      \list{location}{1}{%
        {San Diego, California}%
      }
      \list{publisher}{1}{%
        {Association for Computing Machinery}%
      }
      \strng{namehash}{ecf782c23b54df0262ce515194bf18af}
      \strng{fullhash}{ecf782c23b54df0262ce515194bf18af}
      \strng{bibnamehash}{ecf782c23b54df0262ce515194bf18af}
      \strng{authorbibnamehash}{ecf782c23b54df0262ce515194bf18af}
      \strng{authornamehash}{ecf782c23b54df0262ce515194bf18af}
      \strng{authorfullhash}{ecf782c23b54df0262ce515194bf18af}
      \field{labelalpha}{Han+07}
      \field{sortinit}{H}
      \field{sortinithash}{6db6145dae8dc9e1271a8d556090b50a}
      \field{labelnamesource}{author}
      \field{labeltitlesource}{title}
      \field{booktitle}{ACM SIGGRAPH 2007 Papers}
      \field{isbn}{9781450378369}
      \field{series}{SIGGRAPH ’07}
      \field{title}{Frequency Domain Normal Map Filtering}
      \field{year}{2007}
      \field{pages}{28\bibrangedash es}
      \range{pages}{-1}
      \verb{doi}
      \verb 10.1145/1275808.1276412
      \endverb
      \verb{urlraw}
      \verb https://doi-org.eaccess.ub.tum.de/10.1145/1275808.1276412
      \endverb
      \verb{url}
      \verb https://doi-org.eaccess.ub.tum.de/10.1145/1275808.1276412
      \endverb
    \endentry
    \entry{10.1145/2448196.2448217}{inproceedings}{}
      \name{author}{4}{}{%
        {{un=0,uniquepart=base,hash=7cd487dc85bee7c114f0c253a889a365}{%
           family={Heitz},
           familyi={H\bibinitperiod},
           given={Eric},
           giveni={E\bibinitperiod},
           givenun=0}}%
        {{un=0,uniquepart=base,hash=193b9ca6685cb6578499da34933e41bf}{%
           family={Nowrouzezahrai},
           familyi={N\bibinitperiod},
           given={Derek},
           giveni={D\bibinitperiod},
           givenun=0}}%
        {{un=0,uniquepart=base,hash=ca722727e2d2a39072cf5d735753eaef}{%
           family={Poulin},
           familyi={P\bibinitperiod},
           given={Pierre},
           giveni={P\bibinitperiod},
           givenun=0}}%
        {{un=0,uniquepart=base,hash=46f09761287ea9fcfe129e62d2be7b21}{%
           family={Neyret},
           familyi={N\bibinitperiod},
           given={Fabrice},
           giveni={F\bibinitperiod},
           givenun=0}}%
      }
      \list{location}{1}{%
        {Orlando, Florida}%
      }
      \list{publisher}{1}{%
        {Association for Computing Machinery}%
      }
      \strng{namehash}{3638496c33040aa04e984d2d3ea3dabb}
      \strng{fullhash}{3638496c33040aa04e984d2d3ea3dabb}
      \strng{bibnamehash}{3638496c33040aa04e984d2d3ea3dabb}
      \strng{authorbibnamehash}{3638496c33040aa04e984d2d3ea3dabb}
      \strng{authornamehash}{3638496c33040aa04e984d2d3ea3dabb}
      \strng{authorfullhash}{3638496c33040aa04e984d2d3ea3dabb}
      \field{labelalpha}{Hei+13}
      \field{sortinit}{H}
      \field{sortinithash}{6db6145dae8dc9e1271a8d556090b50a}
      \field{labelnamesource}{author}
      \field{labeltitlesource}{title}
      \field{booktitle}{Proceedings of the ACM SIGGRAPH Symposium on Interactive 3D Graphics and Games}
      \field{isbn}{9781450319560}
      \field{series}{I3D ’13}
      \field{title}{Filtering Color Mapped Textures and Surfaces}
      \field{year}{2013}
      \field{pages}{129\bibrangedash 136}
      \range{pages}{8}
      \verb{doi}
      \verb 10.1145/2448196.2448217
      \endverb
      \verb{urlraw}
      \verb https://doi.org/10.1145/2448196.2448217
      \endverb
      \verb{url}
      \verb https://doi.org/10.1145/2448196.2448217
      \endverb
      \keyw{noise,LOD,Gaussian statistics,procedural texture}
    \endentry
    \entry{Jarbus}{book}{}
      \name{author}{1}{}{%
        {{un=0,uniquepart=base,hash=0f222a9e0258e42ad91db6808a8e01f8}{%
           family={Jarbus},
           familyi={J\bibinitperiod},
           given={Al´fred\bibnamedelima L.},
           giveni={A\bibinitperiod\bibinitdelim L\bibinitperiod},
           givenun=0}}%
      }
      \list{publisher}{1}{%
        {Plenum Pr.}%
      }
      \strng{namehash}{0f222a9e0258e42ad91db6808a8e01f8}
      \strng{fullhash}{0f222a9e0258e42ad91db6808a8e01f8}
      \strng{bibnamehash}{0f222a9e0258e42ad91db6808a8e01f8}
      \strng{authorbibnamehash}{0f222a9e0258e42ad91db6808a8e01f8}
      \strng{authornamehash}{0f222a9e0258e42ad91db6808a8e01f8}
      \strng{authorfullhash}{0f222a9e0258e42ad91db6808a8e01f8}
      \field{labelalpha}{Jar67}
      \field{sortinit}{J}
      \field{sortinithash}{c45040a764d616897e7f5b30174d7b92}
      \field{labelnamesource}{author}
      \field{labeltitlesource}{title}
      \field{title}{Eye movements and visiohn}
      \field{year}{1967}
    \endentry
    \entry{5595925}{inproceedings}{}
      \name{author}{2}{}{%
        {{un=0,uniquepart=base,hash=5bd58a25a672d5f976258408eb579ecc}{%
           family={{Kobayashi}},
           familyi={K\bibinitperiod},
           given={T.},
           giveni={T\bibinitperiod},
           givenun=0}}%
        {{un=0,uniquepart=base,hash=6bfcbb674d91d6686bdf0bdc02b8b4b7}{%
           family={{Otsu}},
           familyi={O\bibinitperiod},
           given={N.},
           giveni={N\bibinitperiod},
           givenun=0}}%
      }
      \strng{namehash}{a243d3ab2b87eae5e177f0145f8bbe52}
      \strng{fullhash}{a243d3ab2b87eae5e177f0145f8bbe52}
      \strng{bibnamehash}{a243d3ab2b87eae5e177f0145f8bbe52}
      \strng{authorbibnamehash}{a243d3ab2b87eae5e177f0145f8bbe52}
      \strng{authornamehash}{a243d3ab2b87eae5e177f0145f8bbe52}
      \strng{authorfullhash}{a243d3ab2b87eae5e177f0145f8bbe52}
      \field{labelalpha}{KO10}
      \field{sortinit}{K}
      \field{sortinithash}{d3edc18d54b9438a72c24c925bfb38f4}
      \field{labelnamesource}{author}
      \field{labeltitlesource}{title}
      \field{booktitle}{2010 20th International Conference on Pattern Recognition}
      \field{issn}{1051-4651}
      \field{month}{8}
      \field{title}{Von Mises-Fisher Mean Shift for Clustering on a Hypersphere}
      \field{year}{2010}
      \field{pages}{2130\bibrangedash 2133}
      \range{pages}{4}
      \verb{doi}
      \verb 10.1109/ICPR.2010.522
      \endverb
      \keyw{matrix algebra;pattern clustering;Von Mises-Fisher mean shift;hypersphere clustering;complex distributions;motion clustering task;Kernel;Probability distribution;Feature extraction;Clustering methods;Vectors;Transient analysis;Clustering algorithms;clustering;hypersphere;mean shift;von Mises-Fisher distribution}
    \endentry
    \entry{Bunny}{online}{}
      \name{author}{1}{}{%
        {{un=0,uniquepart=base,hash=fede6e37e3f822f4dc55b4b5dbe8537f}{%
           family={Laboratory},
           familyi={L\bibinitperiod},
           given={Stanford\bibnamedelimb University\bibnamedelimb Computer\bibnamedelima Graphics},
           giveni={S\bibinitperiod\bibinitdelim U\bibinitperiod\bibinitdelim C\bibinitperiod\bibinitdelim G\bibinitperiod},
           givenun=0}}%
      }
      \strng{namehash}{fede6e37e3f822f4dc55b4b5dbe8537f}
      \strng{fullhash}{fede6e37e3f822f4dc55b4b5dbe8537f}
      \strng{bibnamehash}{fede6e37e3f822f4dc55b4b5dbe8537f}
      \strng{authorbibnamehash}{fede6e37e3f822f4dc55b4b5dbe8537f}
      \strng{authornamehash}{fede6e37e3f822f4dc55b4b5dbe8537f}
      \strng{authorfullhash}{fede6e37e3f822f4dc55b4b5dbe8537f}
      \field{labelalpha}{Lab03}
      \field{sortinit}{L}
      \field{sortinithash}{dad3efd0836470093a7b4a7bb756eb8c}
      \field{labelnamesource}{author}
      \field{labeltitlesource}{title}
      \field{title}{The Stanford Models}
      \field{year}{1993-2003}
      \verb{urlraw}
      \verb http://graphics.stanford.edu/data/3Dscanrep/
      \endverb
      \verb{url}
      \verb http://graphics.stanford.edu/data/3Dscanrep/
      \endverb
    \endentry
    \entry{percLOD}{article}{}
      \name{author}{2}{}{%
        {{un=0,uniquepart=base,hash=5f8d7b4e3cb900a31814f4801fd1c335}{%
           family={LIEU-HEN\bibnamedelima CHEN},
           familyi={L\bibinithyphendelim H\bibinitperiod\bibinitdelim C\bibinitperiod},
           given={YU-SHENG\bibnamedelima CHEN},
           giveni={Y\bibinithyphendelim S\bibinitperiod\bibinitdelim C\bibinitperiod},
           givenun=0}}%
        {{un=0,uniquepart=base,hash=d3692244b2e76c84dd60e4467dd683b5}{%
           family={TSAI},
           familyi={T\bibinitperiod},
           given={TSUNG-CHIH},
           giveni={T\bibinithyphendelim C\bibinitperiod},
           givenun=0}}%
      }
      \strng{namehash}{13f0b0fe16eb4d57dc05dc1d5c01959a}
      \strng{fullhash}{13f0b0fe16eb4d57dc05dc1d5c01959a}
      \strng{bibnamehash}{13f0b0fe16eb4d57dc05dc1d5c01959a}
      \strng{authorbibnamehash}{13f0b0fe16eb4d57dc05dc1d5c01959a}
      \strng{authornamehash}{13f0b0fe16eb4d57dc05dc1d5c01959a}
      \strng{authorfullhash}{13f0b0fe16eb4d57dc05dc1d5c01959a}
      \field{labelalpha}{LT11}
      \field{sortinit}{L}
      \field{sortinithash}{dad3efd0836470093a7b4a7bb756eb8c}
      \field{labelnamesource}{author}
      \field{labeltitlesource}{title}
      \field{journaltitle}{Journal of Information Science and Engineering}
      \field{title}{Perceptual LOD under Low Resolution Conditions}
      \field{year}{2011}
    \endentry
    \entry{FSIM}{article}{}
      \name{author}{2}{}{%
        {{un=0,uniquepart=base,hash=597a1e735951b63c2b2b08499c8ed532}{%
           family={L.\bibnamedelimi Zhang},
           familyi={L\bibinitperiod\bibinitdelim Z\bibinitperiod},
           given={X.\bibnamedelimi Mou},
           giveni={X\bibinitperiod\bibinitdelim M\bibinitperiod},
           givenun=0}}%
        {{un=1,uniquepart=given,hash=59d10f8a548ee180b28909fb783a76eb}{%
           family={Zhang},
           familyi={Z\bibinitperiod},
           given={D.},
           giveni={D\bibinitperiod},
           givenun=1}}%
      }
      \strng{namehash}{691eda732cb523e63634a3cb682e1eb3}
      \strng{fullhash}{691eda732cb523e63634a3cb682e1eb3}
      \strng{bibnamehash}{691eda732cb523e63634a3cb682e1eb3}
      \strng{authorbibnamehash}{691eda732cb523e63634a3cb682e1eb3}
      \strng{authornamehash}{691eda732cb523e63634a3cb682e1eb3}
      \strng{authorfullhash}{691eda732cb523e63634a3cb682e1eb3}
      \field{labelalpha}{LZ11}
      \field{sortinit}{L}
      \field{sortinithash}{dad3efd0836470093a7b4a7bb756eb8c}
      \field{labelnamesource}{author}
      \field{labeltitlesource}{title}
      \field{journaltitle}{IEEE Transactions on Image Processing}
      \field{title}{FSIM: A Feature Similarity Index for Image Quality Assessment}
      \field{year}{2011}
    \endentry
    \entry{BSD}{online}{}
      \name{author}{1}{}{%
        {{un=0,uniquepart=base,hash=900c4bce724b685dbf60d40936f20175}{%
           family={opensource.org},
           familyi={o\bibinitperiod}}}%
      }
      \strng{namehash}{900c4bce724b685dbf60d40936f20175}
      \strng{fullhash}{900c4bce724b685dbf60d40936f20175}
      \strng{bibnamehash}{900c4bce724b685dbf60d40936f20175}
      \strng{authorbibnamehash}{900c4bce724b685dbf60d40936f20175}
      \strng{authornamehash}{900c4bce724b685dbf60d40936f20175}
      \strng{authorfullhash}{900c4bce724b685dbf60d40936f20175}
      \field{labelalpha}{ope20}
      \field{sortinit}{o}
      \field{sortinithash}{ff8d4eeb5101e3cf3809959b3592d942}
      \field{labelnamesource}{author}
      \field{labeltitlesource}{title}
      \field{title}{The 2-Clause BSD License}
      \field{year}{2020}
      \verb{urlraw}
      \verb https://opensource.org/licenses/BSD-2-Clause
      \endverb
      \verb{url}
      \verb https://opensource.org/licenses/BSD-2-Clause
      \endverb
    \endentry
    \entry{ren2019musicoriented}{misc}{}
      \name{author}{4}{}{%
        {{un=0,uniquepart=base,hash=056adddc334ae51dcdb56a3f9637a788}{%
           family={Ren},
           familyi={R\bibinitperiod},
           given={Xuanchi},
           giveni={X\bibinitperiod},
           givenun=0}}%
        {{un=0,uniquepart=base,hash=f98d5d63fbe542a5f9a64aed46c16a99}{%
           family={Li},
           familyi={L\bibinitperiod},
           given={Haoran},
           giveni={H\bibinitperiod},
           givenun=0}}%
        {{un=0,uniquepart=base,hash=b52fd19c24c27e778982848a28c1adca}{%
           family={Huang},
           familyi={H\bibinitperiod},
           given={Zijian},
           giveni={Z\bibinitperiod},
           givenun=0}}%
        {{un=0,uniquepart=base,hash=7928a0b7e3ee0c5a35a82d179201a4d7}{%
           family={Chen},
           familyi={C\bibinitperiod},
           given={Qifeng},
           giveni={Q\bibinitperiod},
           givenun=0}}%
      }
      \strng{namehash}{de189117090c691fcf38f63c4d5e3a6d}
      \strng{fullhash}{de189117090c691fcf38f63c4d5e3a6d}
      \strng{bibnamehash}{de189117090c691fcf38f63c4d5e3a6d}
      \strng{authorbibnamehash}{de189117090c691fcf38f63c4d5e3a6d}
      \strng{authornamehash}{de189117090c691fcf38f63c4d5e3a6d}
      \strng{authorfullhash}{de189117090c691fcf38f63c4d5e3a6d}
      \field{labelalpha}{Ren+19}
      \field{sortinit}{R}
      \field{sortinithash}{b9c68a358aea118dfa887b6e902414a7}
      \field{labelnamesource}{author}
      \field{labeltitlesource}{title}
      \field{eprintclass}{cs.CV}
      \field{eprinttype}{arXiv}
      \field{title}{Music-oriented Dance Video Synthesis with Pose Perceptual Loss}
      \field{year}{2019}
      \verb{eprint}
      \verb 1912.06606
      \endverb
    \endentry
    \entry{10.1145/383259.383271}{inproceedings}{}
      \name{author}{2}{}{%
        {{un=0,uniquepart=base,hash=e7e274981ceb0dd123d44af35cc7bedf}{%
           family={Ramamoorthi},
           familyi={R\bibinitperiod},
           given={Ravi},
           giveni={R\bibinitperiod},
           givenun=0}}%
        {{un=0,uniquepart=base,hash=40c20cccc8bd195351b031b9a1a0e961}{%
           family={Hanrahan},
           familyi={H\bibinitperiod},
           given={Pat},
           giveni={P\bibinitperiod},
           givenun=0}}%
      }
      \list{location}{1}{%
        {New York, NY, USA}%
      }
      \list{publisher}{1}{%
        {Association for Computing Machinery}%
      }
      \strng{namehash}{e7d36a5f19bac8b73017fa3a69f40212}
      \strng{fullhash}{e7d36a5f19bac8b73017fa3a69f40212}
      \strng{bibnamehash}{e7d36a5f19bac8b73017fa3a69f40212}
      \strng{authorbibnamehash}{e7d36a5f19bac8b73017fa3a69f40212}
      \strng{authornamehash}{e7d36a5f19bac8b73017fa3a69f40212}
      \strng{authorfullhash}{e7d36a5f19bac8b73017fa3a69f40212}
      \field{labelalpha}{RH01}
      \field{sortinit}{R}
      \field{sortinithash}{b9c68a358aea118dfa887b6e902414a7}
      \field{labelnamesource}{author}
      \field{labeltitlesource}{title}
      \field{booktitle}{Proceedings of the 28th Annual Conference on Computer Graphics and Interactive Techniques}
      \field{isbn}{158113374X}
      \field{series}{SIGGRAPH ’01}
      \field{title}{A Signal-Processing Framework for Inverse Rendering}
      \field{year}{2001}
      \field{pages}{117\bibrangedash 128}
      \range{pages}{12}
      \verb{doi}
      \verb 10.1145/383259.383271
      \endverb
      \verb{urlraw}
      \verb https://doi-org.eaccess.ub.tum.de/10.1145/383259.383271
      \endverb
      \verb{url}
      \verb https://doi-org.eaccess.ub.tum.de/10.1145/383259.383271
      \endverb
      \keyw{signal processing,illumination,inverse rendering,BRDF,irradiance,light field,radiance,spherical harmonics}
    \endentry
    \entry{antialiasingBumpMaps}{article}{}
      \name{author}{1}{}{%
        {{un=0,uniquepart=base,hash=436334a0007d9b3542b6d1ad7fb463bc}{%
           family={Schilling},
           familyi={S\bibinitperiod},
           given={Andreas},
           giveni={A\bibinitperiod},
           givenun=0}}%
      }
      \strng{namehash}{436334a0007d9b3542b6d1ad7fb463bc}
      \strng{fullhash}{436334a0007d9b3542b6d1ad7fb463bc}
      \strng{bibnamehash}{436334a0007d9b3542b6d1ad7fb463bc}
      \strng{authorbibnamehash}{436334a0007d9b3542b6d1ad7fb463bc}
      \strng{authornamehash}{436334a0007d9b3542b6d1ad7fb463bc}
      \strng{authorfullhash}{436334a0007d9b3542b6d1ad7fb463bc}
      \field{labelalpha}{Sch97}
      \field{sortinit}{S}
      \field{sortinithash}{c319cff79d99c853d775f88277d4e45f}
      \field{labelnamesource}{author}
      \field{labeltitlesource}{title}
      \field{month}{12}
      \field{title}{Antialiasing of Bump Maps}
      \field{year}{1997}
    \endentry
    \entry{10.1145/2010324.1964976}{article}{}
      \name{author}{2}{}{%
        {{un=0,uniquepart=base,hash=1b2149ad300f2fa2543ab0292070bf34}{%
           family={Solenthaler},
           familyi={S\bibinitperiod},
           given={Barbara},
           giveni={B\bibinitperiod},
           givenun=0}}%
        {{un=0,uniquepart=base,hash=89835485884945e38712de8162277435}{%
           family={Gross},
           familyi={G\bibinitperiod},
           given={Markus},
           giveni={M\bibinitperiod},
           givenun=0}}%
      }
      \list{location}{1}{%
        {New York, NY, USA}%
      }
      \list{publisher}{1}{%
        {Association for Computing Machinery}%
      }
      \strng{namehash}{098ab55e0c60ffac452977e57c3418f5}
      \strng{fullhash}{098ab55e0c60ffac452977e57c3418f5}
      \strng{bibnamehash}{098ab55e0c60ffac452977e57c3418f5}
      \strng{authorbibnamehash}{098ab55e0c60ffac452977e57c3418f5}
      \strng{authornamehash}{098ab55e0c60ffac452977e57c3418f5}
      \strng{authorfullhash}{098ab55e0c60ffac452977e57c3418f5}
      \field{labelalpha}{SG11}
      \field{sortinit}{S}
      \field{sortinithash}{c319cff79d99c853d775f88277d4e45f}
      \field{labelnamesource}{author}
      \field{labeltitlesource}{title}
      \field{issn}{0730-0301}
      \field{journaltitle}{ACM Trans. Graph.}
      \field{month}{7}
      \field{number}{4}
      \field{title}{Two-Scale Particle Simulation}
      \field{volume}{30}
      \field{year}{2011}
      \verb{doi}
      \verb 10.1145/2010324.1964976
      \endverb
      \verb{urlraw}
      \verb https://doi-org.eaccess.ub.tum.de/10.1145/2010324.1964976
      \endverb
      \verb{url}
      \verb https://doi-org.eaccess.ub.tum.de/10.1145/2010324.1964976
      \endverb
      \keyw{level of detail,fluid simulation,SPH,two-scale}
    \endentry
    \entry{10.1145/97879.97901}{inproceedings}{}
      \name{author}{2}{}{%
        {{un=0,uniquepart=base,hash=87cc8857710e8cfe08e51f9fb753cf53}{%
           family={Saito},
           familyi={S\bibinitperiod},
           given={Takafumi},
           giveni={T\bibinitperiod},
           givenun=0}}%
        {{un=0,uniquepart=base,hash=8da096cf8968cddc408d332ec7522d06}{%
           family={Takahashi},
           familyi={T\bibinitperiod},
           given={Tokiichiro},
           giveni={T\bibinitperiod},
           givenun=0}}%
      }
      \list{location}{1}{%
        {Dallas, TX, USA}%
      }
      \list{publisher}{1}{%
        {Association for Computing Machinery}%
      }
      \strng{namehash}{b0f07e2cb97c7edfc3d351e189ab8ec6}
      \strng{fullhash}{b0f07e2cb97c7edfc3d351e189ab8ec6}
      \strng{bibnamehash}{b0f07e2cb97c7edfc3d351e189ab8ec6}
      \strng{authorbibnamehash}{b0f07e2cb97c7edfc3d351e189ab8ec6}
      \strng{authornamehash}{b0f07e2cb97c7edfc3d351e189ab8ec6}
      \strng{authorfullhash}{b0f07e2cb97c7edfc3d351e189ab8ec6}
      \field{labelalpha}{ST90}
      \field{sortinit}{S}
      \field{sortinithash}{c319cff79d99c853d775f88277d4e45f}
      \field{labelnamesource}{author}
      \field{labeltitlesource}{title}
      \field{booktitle}{Proceedings of the 17th Annual Conference on Computer Graphics and Interactive Techniques}
      \field{isbn}{0897913442}
      \field{series}{SIGGRAPH ’90}
      \field{title}{Comprehensible Rendering of 3-D Shapes}
      \field{year}{1990}
      \field{pages}{197\bibrangedash 206}
      \range{pages}{10}
      \verb{doi}
      \verb 10.1145/97879.97901
      \endverb
      \verb{urlraw}
      \verb https://doi-org.eaccess.ub.tum.de/10.1145/97879.97901
      \endverb
      \verb{url}
      \verb https://doi-org.eaccess.ub.tum.de/10.1145/97879.97901
      \endverb
    \endentry
    \entry{Toksvig2005MipmappingNM}{article}{}
      \name{author}{1}{}{%
        {{un=0,uniquepart=base,hash=1df0dc399bbc54d6ff3dc15ed1264ce5}{%
           family={Toksvig},
           familyi={T\bibinitperiod},
           given={Michael},
           giveni={M\bibinitperiod},
           givenun=0}}%
      }
      \strng{namehash}{1df0dc399bbc54d6ff3dc15ed1264ce5}
      \strng{fullhash}{1df0dc399bbc54d6ff3dc15ed1264ce5}
      \strng{bibnamehash}{1df0dc399bbc54d6ff3dc15ed1264ce5}
      \strng{authorbibnamehash}{1df0dc399bbc54d6ff3dc15ed1264ce5}
      \strng{authornamehash}{1df0dc399bbc54d6ff3dc15ed1264ce5}
      \strng{authorfullhash}{1df0dc399bbc54d6ff3dc15ed1264ce5}
      \field{labelalpha}{Tok05}
      \field{sortinit}{T}
      \field{sortinithash}{51f9faf24c60c62ca764a77f78cf5666}
      \field{labelnamesource}{author}
      \field{labeltitlesource}{title}
      \field{journaltitle}{J. Graphics Tools}
      \field{title}{Mipmapping Normal Maps}
      \field{volume}{10}
      \field{year}{2005}
      \field{pages}{65\bibrangedash 71}
      \range{pages}{7}
    \endentry
    \entry{CT}{article}{}
      \name{author}{2}{}{%
        {{un=0,uniquepart=base,hash=f2b5f4433c2f8cf9edf6aa3e45e5f68f}{%
           family={Torrance},
           familyi={T\bibinitperiod},
           given={K.E.},
           giveni={K\bibinitperiod},
           givenun=0}}%
        {{un=0,uniquepart=base,hash=852d475c7eec6da5b94d8c95a348c06f}{%
           family={Sparrow},
           familyi={S\bibinitperiod},
           given={E.M.},
           giveni={E\bibinitperiod},
           givenun=0}}%
      }
      \strng{namehash}{da859254bc955a59bd287d68e71ac097}
      \strng{fullhash}{da859254bc955a59bd287d68e71ac097}
      \strng{bibnamehash}{da859254bc955a59bd287d68e71ac097}
      \strng{authorbibnamehash}{da859254bc955a59bd287d68e71ac097}
      \strng{authornamehash}{da859254bc955a59bd287d68e71ac097}
      \strng{authorfullhash}{da859254bc955a59bd287d68e71ac097}
      \field{labelalpha}{TS67}
      \field{sortinit}{T}
      \field{sortinithash}{51f9faf24c60c62ca764a77f78cf5666}
      \field{labelnamesource}{author}
      \field{labeltitlesource}{title}
      \field{journaltitle}{Journal of the optical society of America}
      \field{title}{Theory for off-specular reﬂection from roughened surfaces}
      \field{year}{1967}
    \endentry
    \entry{meanwiki}{online}{}
      \name{author}{1}{}{%
        {{un=1,uniquepart=given,hash=20383bcf9a527ae5fa7a4c0fe2889635}{%
           family={User},
           familyi={U\bibinitperiod},
           given={Cmglee\bibnamedelima Wikipedia},
           giveni={C\bibinitperiod\bibinitdelim W\bibinitperiod},
           givenun=1}}%
      }
      \strng{namehash}{20383bcf9a527ae5fa7a4c0fe2889635}
      \strng{fullhash}{20383bcf9a527ae5fa7a4c0fe2889635}
      \strng{bibnamehash}{20383bcf9a527ae5fa7a4c0fe2889635}
      \strng{authorbibnamehash}{20383bcf9a527ae5fa7a4c0fe2889635}
      \strng{authornamehash}{20383bcf9a527ae5fa7a4c0fe2889635}
      \strng{authorfullhash}{20383bcf9a527ae5fa7a4c0fe2889635}
      \field{labelalpha}{Use11}
      \field{sortinit}{U}
      \field{sortinithash}{77a6935510e008adcf5b555e7b4f0711}
      \field{labelnamesource}{author}
      \field{labeltitlesource}{title}
      \field{title}{Comparison of the arithmetic mean, median and mode of two skewed (log-normal) distributions.}
      \field{year}{2011}
      \verb{urlraw}
      \verb https://en.wikipedia.org/wiki/Mean#/media/File:Comparison_mean_median_mode.svg
      \endverb
      \verb{url}
      \verb https://en.wikipedia.org/wiki/Mean#/media/File:Comparison_mean_median_mode.svg
      \endverb
    \endentry
    \entry{mipwiki}{online}{}
      \name{author}{1}{}{%
        {{un=1,uniquepart=given,hash=1eb0e22501c7bb35620cadceafb32c43}{%
           family={User},
           familyi={U\bibinitperiod},
           given={BillyBob\bibnamedelimb CornCob\bibnamedelima Wikipedia},
           giveni={B\bibinitperiod\bibinitdelim C\bibinitperiod\bibinitdelim W\bibinitperiod},
           givenun=1}}%
      }
      \strng{namehash}{1eb0e22501c7bb35620cadceafb32c43}
      \strng{fullhash}{1eb0e22501c7bb35620cadceafb32c43}
      \strng{bibnamehash}{1eb0e22501c7bb35620cadceafb32c43}
      \strng{authorbibnamehash}{1eb0e22501c7bb35620cadceafb32c43}
      \strng{authornamehash}{1eb0e22501c7bb35620cadceafb32c43}
      \strng{authorfullhash}{1eb0e22501c7bb35620cadceafb32c43}
      \field{labelalpha}{Use19}
      \field{sortinit}{U}
      \field{sortinithash}{77a6935510e008adcf5b555e7b4f0711}
      \field{labelnamesource}{author}
      \field{labeltitlesource}{title}
      \field{title}{Mipmap_Aliasing_Comparison.png}
      \field{year}{2019}
      \verb{urlraw}
      \verb https://en.wikipedia.org/wiki/Mipmap#/media/File:Mipmap_Aliasing_Comparison.png
      \endverb
      \verb{url}
      \verb https://en.wikipedia.org/wiki/Mipmap#/media/File:Mipmap_Aliasing_Comparison.png
      \endverb
    \endentry
    \entry{deferred}{online}{}
      \name{author}{1}{}{%
        {{un=0,uniquepart=base,hash=516de641ba81d36bf9b42ee36a3b3a81}{%
           family={Vries},
           familyi={V\bibinitperiod},
           given={Joey},
           giveni={J\bibinitperiod},
           givenun=0,
           prefix={de},
           prefixi={d\bibinitperiod},
           prefixun=0}}%
      }
      \strng{namehash}{516de641ba81d36bf9b42ee36a3b3a81}
      \strng{fullhash}{516de641ba81d36bf9b42ee36a3b3a81}
      \strng{bibnamehash}{516de641ba81d36bf9b42ee36a3b3a81}
      \strng{authorbibnamehash}{516de641ba81d36bf9b42ee36a3b3a81}
      \strng{authornamehash}{516de641ba81d36bf9b42ee36a3b3a81}
      \strng{authorfullhash}{516de641ba81d36bf9b42ee36a3b3a81}
      \field{labelalpha}{Vri14}
      \field{sortinit}{V}
      \field{sortinithash}{02432525618c08e2b03cac47c19764af}
      \field{labelnamesource}{author}
      \field{labeltitlesource}{title}
      \field{title}{Deferred Shading}
      \field{year}{2014}
      \verb{urlraw}
      \verb https://learnopengl.com/Advanced-Lighting/Deferred-Shading
      \endverb
      \verb{url}
      \verb https://learnopengl.com/Advanced-Lighting/Deferred-Shading
      \endverb
    \endentry
    \entry{Gestalt}{article}{}
      \name{author}{1}{}{%
        {{un=0,uniquepart=base,hash=87391f38c1b323e308a8ad0f20ea6a29}{%
           family={Wertheimer},
           familyi={W\bibinitperiod},
           given={Max},
           giveni={M\bibinitperiod},
           givenun=0}}%
      }
      \strng{namehash}{87391f38c1b323e308a8ad0f20ea6a29}
      \strng{fullhash}{87391f38c1b323e308a8ad0f20ea6a29}
      \strng{bibnamehash}{87391f38c1b323e308a8ad0f20ea6a29}
      \strng{authorbibnamehash}{87391f38c1b323e308a8ad0f20ea6a29}
      \strng{authornamehash}{87391f38c1b323e308a8ad0f20ea6a29}
      \strng{authorfullhash}{87391f38c1b323e308a8ad0f20ea6a29}
      \field{labelalpha}{Wer23}
      \field{sortinit}{W}
      \field{sortinithash}{1af34bd8c148ffb32de1494636b49713}
      \field{labelnamesource}{author}
      \field{labeltitlesource}{title}
      \field{journaltitle}{Zeitschrift für Psychologie und ihre Grenzwissenschaften}
      \field{title}{Untersuchungen zur Lehre von der Gestalt}
      \field{year}{1923}
    \endentry
    \entry{10.1145/800059.801126}{inproceedings}{}
      \name{author}{1}{}{%
        {{un=0,uniquepart=base,hash=6fafec0793a296fd6473dd5d1c313161}{%
           family={Williams},
           familyi={W\bibinitperiod},
           given={Lance},
           giveni={L\bibinitperiod},
           givenun=0}}%
      }
      \list{location}{1}{%
        {Detroit, Michigan, USA}%
      }
      \list{publisher}{1}{%
        {Association for Computing Machinery}%
      }
      \strng{namehash}{6fafec0793a296fd6473dd5d1c313161}
      \strng{fullhash}{6fafec0793a296fd6473dd5d1c313161}
      \strng{bibnamehash}{6fafec0793a296fd6473dd5d1c313161}
      \strng{authorbibnamehash}{6fafec0793a296fd6473dd5d1c313161}
      \strng{authornamehash}{6fafec0793a296fd6473dd5d1c313161}
      \strng{authorfullhash}{6fafec0793a296fd6473dd5d1c313161}
      \field{labelalpha}{Wil83}
      \field{sortinit}{W}
      \field{sortinithash}{1af34bd8c148ffb32de1494636b49713}
      \field{labelnamesource}{author}
      \field{labeltitlesource}{title}
      \field{booktitle}{Proceedings of the 10th Annual Conference on Computer Graphics and Interactive Techniques}
      \field{isbn}{0897911091}
      \field{series}{SIGGRAPH ’83}
      \field{title}{Pyramidal Parametrics}
      \field{year}{1983}
      \field{pages}{1\bibrangedash 11}
      \range{pages}{11}
      \verb{doi}
      \verb 10.1145/800059.801126
      \endverb
      \verb{urlraw}
      \verb https://doi-org.eaccess.ub.tum.de/10.1145/800059.801126
      \endverb
      \verb{url}
      \verb https://doi-org.eaccess.ub.tum.de/10.1145/800059.801126
      \endverb
      \keyw{Antialiasing,Modeling,Texture mapping,Illumination models,Pyramidal data structures,Reflectance mapping,Visible surface algorithms}
    \endentry
    \entry{clothLOD}{patent}{}
      \name{author}{3}{}{%
        {{un=0,uniquepart=base,hash=1c9bfe32aabf78aaaa207d45be3a4746}{%
           family={WOOK},
           familyi={W\bibinitperiod},
           given={KIM\bibnamedelima JIN},
           giveni={K\bibinitperiod\bibinitdelim J\bibinitperiod},
           givenun=0}}%
        {{un=0,uniquepart=base,hash=82d47a07af300f8e707a0f7bb077e4e0}{%
           family={SUN},
           familyi={S\bibinitperiod},
           given={SUH\bibnamedelima YOUNG},
           giveni={S\bibinitperiod\bibinitdelim Y\bibinitperiod},
           givenun=0}}%
        {{un=0,uniquepart=base,hash=f83acf96c8244d97120daf8a548a2fcf}{%
           family={JUN},
           familyi={J\bibinitperiod},
           given={KIM\bibnamedelima YOUNG},
           giveni={K\bibinitperiod\bibinitdelim Y\bibinitperiod},
           givenun=0}}%
      }
      \strng{namehash}{93460f83eb42d3c0d34ef184de991da2}
      \strng{fullhash}{93460f83eb42d3c0d34ef184de991da2}
      \strng{bibnamehash}{93460f83eb42d3c0d34ef184de991da2}
      \strng{authorbibnamehash}{93460f83eb42d3c0d34ef184de991da2}
      \strng{authornamehash}{93460f83eb42d3c0d34ef184de991da2}
      \strng{authorfullhash}{93460f83eb42d3c0d34ef184de991da2}
      \field{labelalpha}{WSJ12}
      \field{sortinit}{W}
      \field{sortinithash}{1af34bd8c148ffb32de1494636b49713}
      \field{labelnamesource}{author}
      \field{labeltitlesource}{title}
      \field{number}{KR101131007}
      \field{title}{SYSTEM AND METHOD FOR CLOTH SIMULATION WITH DYNAMIC LEVEL OF DETAIL}
      \field{year}{2012}
    \endentry
    \entry{DBLP:journals/corr/abs-1801-03924}{article}{}
      \name{author}{5}{}{%
        {{un=1,uniquepart=given,hash=0c65190dcbd461dee172354f7938ae43}{%
           family={Zhang},
           familyi={Z\bibinitperiod},
           given={Richard},
           giveni={R\bibinitperiod},
           givenun=1}}%
        {{un=0,uniquepart=base,hash=cae9f806bc99a5f19fadea538fc2db04}{%
           family={Isola},
           familyi={I\bibinitperiod},
           given={Phillip},
           giveni={P\bibinitperiod},
           givenun=0}}%
        {{un=0,uniquepart=base,hash=5a663b27298722834a8cf09bb93d8c94}{%
           family={Efros},
           familyi={E\bibinitperiod},
           given={Alexei\bibnamedelima A.},
           giveni={A\bibinitperiod\bibinitdelim A\bibinitperiod},
           givenun=0}}%
        {{un=0,uniquepart=base,hash=739ef881fb9e0c2c8d7110c90325d960}{%
           family={Shechtman},
           familyi={S\bibinitperiod},
           given={Eli},
           giveni={E\bibinitperiod},
           givenun=0}}%
        {{un=0,uniquepart=base,hash=4954ab8be479c4a3f1496ddfbc21a605}{%
           family={Wang},
           familyi={W\bibinitperiod},
           given={Oliver},
           giveni={O\bibinitperiod},
           givenun=0}}%
      }
      \strng{namehash}{636e6ae4822477e755423a7db71f9e17}
      \strng{fullhash}{b4812124f82ca96d3c1cb10ee3db7804}
      \strng{bibnamehash}{b4812124f82ca96d3c1cb10ee3db7804}
      \strng{authorbibnamehash}{b4812124f82ca96d3c1cb10ee3db7804}
      \strng{authornamehash}{636e6ae4822477e755423a7db71f9e17}
      \strng{authorfullhash}{b4812124f82ca96d3c1cb10ee3db7804}
      \field{labelalpha}{Zha+18}
      \field{sortinit}{Z}
      \field{sortinithash}{8f7b480688e809b50b6f6577b16f3db5}
      \field{labelnamesource}{author}
      \field{labeltitlesource}{title}
      \field{eprinttype}{arXiv}
      \field{journaltitle}{CoRR}
      \field{title}{The Unreasonable Effectiveness of Deep Features as a Perceptual Metric}
      \field{volume}{abs/1801.03924}
      \field{year}{2018}
      \verb{eprint}
      \verb 1801.03924
      \endverb
      \verb{urlraw}
      \verb http://arxiv.org/abs/1801.03924
      \endverb
      \verb{url}
      \verb http://arxiv.org/abs/1801.03924
      \endverb
    \endentry
    \entry{1284395}{article}{}
      \name{author}{4}{}{%
        {{un=0,uniquepart=base,hash=458f40cf42c4878530edcb14ab453b12}{%
           family={{Zhou Wang}},
           familyi={Z\bibinitperiod}}}%
        {{un=0,uniquepart=base,hash=6192fbf30c45211fdfc67652236bec72}{%
           family={{Bovik}},
           familyi={B\bibinitperiod},
           given={A.\bibnamedelimi C.},
           giveni={A\bibinitperiod\bibinitdelim C\bibinitperiod},
           givenun=0}}%
        {{un=0,uniquepart=base,hash=84051ed6c4d99d3ccc763a9bfdfd28a8}{%
           family={{Sheikh}},
           familyi={S\bibinitperiod},
           given={H.\bibnamedelimi R.},
           giveni={H\bibinitperiod\bibinitdelim R\bibinitperiod},
           givenun=0}}%
        {{un=0,uniquepart=base,hash=071228688c89a654d8f1b7ca8d022a6f}{%
           family={{Simoncelli}},
           familyi={S\bibinitperiod},
           given={E.\bibnamedelimi P.},
           giveni={E\bibinitperiod\bibinitdelim P\bibinitperiod},
           givenun=0}}%
      }
      \strng{namehash}{c68e684211f0809df4b9e405ad79960f}
      \strng{fullhash}{c68e684211f0809df4b9e405ad79960f}
      \strng{bibnamehash}{c68e684211f0809df4b9e405ad79960f}
      \strng{authorbibnamehash}{c68e684211f0809df4b9e405ad79960f}
      \strng{authornamehash}{c68e684211f0809df4b9e405ad79960f}
      \strng{authorfullhash}{c68e684211f0809df4b9e405ad79960f}
      \field{labelalpha}{Zho+04}
      \field{sortinit}{Z}
      \field{sortinithash}{8f7b480688e809b50b6f6577b16f3db5}
      \field{labelnamesource}{author}
      \field{labeltitlesource}{title}
      \field{issn}{1941-0042}
      \field{journaltitle}{IEEE Transactions on Image Processing}
      \field{month}{4}
      \field{number}{4}
      \field{title}{Image quality assessment: from error visibility to structural similarity}
      \field{volume}{13}
      \field{year}{2004}
      \field{pages}{600\bibrangedash 612}
      \range{pages}{13}
      \verb{doi}
      \verb 10.1109/TIP.2003.819861
      \endverb
      \keyw{data compression;visual perception;image coding;perceptual image quality assessment;error visibility;structural similarity index;error sensitivity;distorted image;reference image;human visual system;human visual perception;structural information;image database;JPEG2000;JPEG;image compression;Image quality;Humans;Transform coding;Visual system;Visual perception;Data mining;Layout;Quality assessment;Degradation;Indexes;Algorithms;Data Interpretation,Statistical;Hypermedia;Image Enhancement;Image Enhancement;Image Interpretation,Computer-Assisted;Image Interpretation,Computer-Assisted;Information Storage and Retrieval;Information Storage and Retrieval;Models,Statistical;Pattern Recognition,Automated;Quality Control;Reproducibility of Results;Sensitivity and Specificity;Signal Processing,Computer-Assisted;Subtraction Technique}
    \endentry
    \entry{zhang2018single}{misc}{}
      \name{author}{3}{}{%
        {{un=1,uniquepart=given,hash=d07c677eefbee3caaa22b9a725b94946}{%
           family={Zhang},
           familyi={Z\bibinitperiod},
           given={Xuaner},
           giveni={X\bibinitperiod},
           givenun=1}}%
        {{un=0,uniquepart=base,hash=96e30bdc2cf905aa1109c46617b16252}{%
           family={Ng},
           familyi={N\bibinitperiod},
           given={Ren},
           giveni={R\bibinitperiod},
           givenun=0}}%
        {{un=0,uniquepart=base,hash=7928a0b7e3ee0c5a35a82d179201a4d7}{%
           family={Chen},
           familyi={C\bibinitperiod},
           given={Qifeng},
           giveni={Q\bibinitperiod},
           givenun=0}}%
      }
      \strng{namehash}{742aa560b318043b99293daa6c7476a5}
      \strng{fullhash}{742aa560b318043b99293daa6c7476a5}
      \strng{bibnamehash}{742aa560b318043b99293daa6c7476a5}
      \strng{authorbibnamehash}{742aa560b318043b99293daa6c7476a5}
      \strng{authornamehash}{742aa560b318043b99293daa6c7476a5}
      \strng{authorfullhash}{742aa560b318043b99293daa6c7476a5}
      \field{labelalpha}{ZNC18}
      \field{sortinit}{Z}
      \field{sortinithash}{8f7b480688e809b50b6f6577b16f3db5}
      \field{labelnamesource}{author}
      \field{labeltitlesource}{title}
      \field{eprintclass}{cs.CV}
      \field{eprinttype}{arXiv}
      \field{title}{Single Image Reflection Separation with Perceptual Losses}
      \field{year}{2018}
      \verb{eprint}
      \verb 1806.05376
      \endverb
    \endentry
  \enddatalist
\endrefsection
\endinput

