\relax 
\providecommand\hyper@newdestlabel[2]{}
\providecommand*\new@tpo@label[2]{}
\catcode `"\active 
\abx@aux@refcontext{anyt/global//global/global}
\providecommand\HyperFirstAtBeginDocument{\AtBeginDocument}
\HyperFirstAtBeginDocument{\ifx\hyper@anchor\@undefined
\global\let\oldcontentsline\contentsline
\gdef\contentsline#1#2#3#4{\oldcontentsline{#1}{#2}{#3}}
\global\let\oldnewlabel\newlabel
\gdef\newlabel#1#2{\newlabelxx{#1}#2}
\gdef\newlabelxx#1#2#3#4#5#6{\oldnewlabel{#1}{{#2}{#3}}}
\AtEndDocument{\ifx\hyper@anchor\@undefined
\let\contentsline\oldcontentsline
\let\newlabel\oldnewlabel
\fi}
\fi}
\global\let\hyper@last\relax 
\gdef\HyperFirstAtBeginDocument#1{#1}
\providecommand\HyField@AuxAddToFields[1]{}
\providecommand\HyField@AuxAddToCoFields[2]{}
\providecommand\BKM@entry[2]{}
\providecommand \oddpage@label [2]{}
\@writefile{toc}{\boolfalse {citerequest}\boolfalse {citetracker}\boolfalse {pagetracker}\boolfalse {backtracker}\relax }
\@writefile{lof}{\boolfalse {citerequest}\boolfalse {citetracker}\boolfalse {pagetracker}\boolfalse {backtracker}\relax }
\@writefile{lot}{\boolfalse {citerequest}\boolfalse {citetracker}\boolfalse {pagetracker}\boolfalse {backtracker}\relax }
\babel@aux{american}{}
\BKM@entry{id=1,dest={446F632D5374617274},srcline={1}}{41636B6E6F776C6564676D656E7473}
\@writefile{toc}{\defcounter {refsection}{0}\relax }\@writefile{toc}{\contentsline {chapter}{Acknowledgments}{iii}{Doc-Start}\protected@file@percent }
\BKM@entry{id=2,dest={636861707465722A2E31},srcline={1}}{4162737472616374}
\@writefile{toc}{\defcounter {refsection}{0}\relax }\@writefile{toc}{\contentsline {chapter}{\nonumberline Abstract}{iv}{chapter*.1}\protected@file@percent }
\@writefile{lof}{\defcounter {refsection}{0}\relax }\@writefile{lof}{\addvspace {10\p@ }}
\@writefile{lot}{\defcounter {refsection}{0}\relax }\@writefile{lot}{\addvspace {10\p@ }}
\@writefile{lol}{\defcounter {refsection}{0}\relax }\@writefile{lol}{\addvspace {10\p@ }}
\@writefile{loa}{\defcounter {refsection}{0}\relax }\@writefile{loa}{\addvspace {10\p@ }}
\BKM@entry{id=3,dest={746F632E30},srcline={35}}{436F6E74656E7473}
\BKM@entry{id=4,dest={636861707465722E31},srcline={4}}{496E74726F64756374696F6E}
\BKM@entry{id=5,dest={73656374696F6E2E312E31},srcline={6}}{4C6576656C206F662044657461696C20616E64204E6F726D616C204D617070696E67}
\abx@aux@cite{10.1145/563274.563323}
\abx@aux@segm{0}{0}{10.1145/563274.563323}
\@writefile{toc}{\defcounter {refsection}{0}\relax }\@writefile{toc}{\contentsline {chapter}{\numberline {1}Introduction}{1}{chapter.1}\protected@file@percent }
\@writefile{lof}{\defcounter {refsection}{0}\relax }\@writefile{lof}{\addvspace {10\p@ }}
\@writefile{lot}{\defcounter {refsection}{0}\relax }\@writefile{lot}{\addvspace {10\p@ }}
\@writefile{lol}{\defcounter {refsection}{0}\relax }\@writefile{lol}{\addvspace {10\p@ }}
\@writefile{loa}{\defcounter {refsection}{0}\relax }\@writefile{loa}{\addvspace {10\p@ }}
\newlabel{chapter:introduction}{{1}{1}{Introduction}{chapter.1}{}}
\@writefile{toc}{\defcounter {refsection}{0}\relax }\@writefile{toc}{\contentsline {section}{\numberline {1.1}Level of Detail and Normal Mapping}{1}{section.1.1}\protected@file@percent }
\@writefile{toc}{\defcounter {refsection}{0}\relax }\@writefile{toc}{\contentsline {subsubsection}{\nonumberline Mesh LOD}{1}{section*.3}\protected@file@percent }
\abx@aux@cite{10.1145/800059.801126}
\abx@aux@segm{0}{0}{10.1145/800059.801126}
\abx@aux@cite{10.1145/800059.801126}
\abx@aux@segm{0}{0}{10.1145/800059.801126}
\abx@aux@cite{10.1145/800059.801126}
\abx@aux@segm{0}{0}{10.1145/800059.801126}
\abx@aux@cite{mipwiki}
\abx@aux@segm{0}{0}{mipwiki}
\abx@aux@cite{mipwiki}
\abx@aux@segm{0}{0}{mipwiki}
\@writefile{lof}{\defcounter {refsection}{0}\relax }\@writefile{lof}{\contentsline {figure}{\numberline {\relax 1.1}{\ignorespaces A MIPMap in memory. Channels are stored separately (RGB). 3D-Coordinate system is overlayed. Illustrations from original paper \cite {10.1145/800059.801126}.\relax }}{2}{figure.caption.5}\protected@file@percent }
\providecommand*\caption@xref[2]{\@setref\relax\@undefined{#1}}
\newlabel{mipmemory}{{\relax 1.1}{2}{A MIPMap in memory. Channels are stored separately (RGB). 3D-Coordinate system is overlayed. Illustrations from original paper \cite {10.1145/800059.801126}.\relax }{figure.caption.5}{}}
\@writefile{toc}{\defcounter {refsection}{0}\relax }\@writefile{toc}{\contentsline {subsubsection}{\nonumberline Texture LOD}{2}{section*.4}\protected@file@percent }
\abx@aux@cite{10.1145/2010324.1964976}
\abx@aux@segm{0}{0}{10.1145/2010324.1964976}
\abx@aux@cite{clothLOD}
\abx@aux@segm{0}{0}{clothLOD}
\@writefile{lof}{\defcounter {refsection}{0}\relax }\@writefile{lof}{\contentsline {figure}{\numberline {\relax 1.2}{\ignorespaces MipMapping Aliasing Comparision. Image from Wikipedia \cite {mipwiki} \relax }}{3}{figure.caption.6}\protected@file@percent }
\newlabel{mipwik}{{\relax 1.2}{3}{MipMapping Aliasing Comparision. Image from Wikipedia \cite {mipwiki} \relax }{figure.caption.6}{}}
\@writefile{toc}{\defcounter {refsection}{0}\relax }\@writefile{toc}{\contentsline {subsubsection}{\nonumberline Physics simulation LOD}{3}{section*.7}\protected@file@percent }
\BKM@entry{id=6,dest={73656374696F6E2E312E32},srcline={45}}{50726F626C656D73206F6620746865207374616E64617264204D495020617070726F616368}
\abx@aux@cite{antialiasingBumpMaps}
\abx@aux@segm{0}{0}{antialiasingBumpMaps}
\abx@aux@cite{10.1145/1275808.1276412}
\abx@aux@segm{0}{0}{10.1145/1275808.1276412}
\abx@aux@cite{10.1145/1275808.1276412}
\abx@aux@segm{0}{0}{10.1145/1275808.1276412}
\BKM@entry{id=7,dest={73656374696F6E2E312E33},srcline={72}}{48756D616E2070657263657074696F6E20616E6420636F6D707574657220766973696F6E}
\@writefile{toc}{\defcounter {refsection}{0}\relax }\@writefile{toc}{\contentsline {section}{\numberline {1.2}Problems of the standard MIP approach}{4}{section.1.2}\protected@file@percent }
\@writefile{lof}{\defcounter {refsection}{0}\relax }\@writefile{lof}{\contentsline {figure}{\numberline {\relax 1.3}{\ignorespaces Illustration of averaging effects. Left: original (512x512), Right: downsampled equal to 16x16 MipMapLevel and scaled back up for comparison. \relax }}{4}{figure.caption.8}\protected@file@percent }
\newlabel{noisecomp}{{\relax 1.3}{4}{Illustration of averaging effects. Left: original (512x512), Right: downsampled equal to 16x16 MipMapLevel and scaled back up for comparison. \relax }{figure.caption.8}{}}
\BKM@entry{id=8,dest={73756273656374696F6E2E312E332E31},srcline={76}}{48756D616E2070657263657074696F6E}
\abx@aux@cite{Gestalt}
\abx@aux@segm{0}{0}{Gestalt}
\@writefile{lof}{\defcounter {refsection}{0}\relax }\@writefile{lof}{\contentsline {figure}{\numberline {\relax 1.4}{\ignorespaces Illustration of detail transferring to roughness at greater distances. Image from \cite {10.1145/1275808.1276412}.\relax }}{5}{figure.caption.9}\protected@file@percent }
\newlabel{roughnesstrans}{{\relax 1.4}{5}{Illustration of detail transferring to roughness at greater distances. Image from \cite {10.1145/1275808.1276412}.\relax }{figure.caption.9}{}}
\@writefile{toc}{\defcounter {refsection}{0}\relax }\@writefile{toc}{\contentsline {section}{\numberline {1.3}Human perception and computer vision}{5}{section.1.3}\protected@file@percent }
\@writefile{toc}{\defcounter {refsection}{0}\relax }\@writefile{toc}{\contentsline {subsection}{\numberline {1.3.1}Human perception}{5}{subsection.1.3.1}\protected@file@percent }
\@writefile{toc}{\defcounter {refsection}{0}\relax }\@writefile{toc}{\contentsline {paragraph}{\nonumberline Law of Proximity.}{5}{section*.10}\protected@file@percent }
\@writefile{toc}{\defcounter {refsection}{0}\relax }\@writefile{toc}{\contentsline {paragraph}{\nonumberline Law of Similarity.}{5}{section*.11}\protected@file@percent }
\@writefile{toc}{\defcounter {refsection}{0}\relax }\@writefile{toc}{\contentsline {paragraph}{\nonumberline Law of Closure.}{5}{section*.12}\protected@file@percent }
\abx@aux@cite{fourier}
\abx@aux@segm{0}{0}{fourier}
\abx@aux@cite{doi:10.1111/cgf.12001}
\abx@aux@segm{0}{0}{doi:10.1111/cgf.12001}
\abx@aux@cite{doi:10.1111/cgf.12001}
\abx@aux@segm{0}{0}{doi:10.1111/cgf.12001}
\abx@aux@cite{Jarbus}
\abx@aux@segm{0}{0}{Jarbus}
\abx@aux@cite{Jarbus}
\abx@aux@segm{0}{0}{Jarbus}
\abx@aux@cite{doi:10.1111/cgf.12001}
\abx@aux@segm{0}{0}{doi:10.1111/cgf.12001}
\abx@aux@cite{Jarbus}
\abx@aux@segm{0}{0}{Jarbus}
\abx@aux@cite{doi:10.1111/cgf.12001}
\abx@aux@segm{0}{0}{doi:10.1111/cgf.12001}
\@writefile{toc}{\defcounter {refsection}{0}\relax }\@writefile{toc}{\contentsline {paragraph}{\nonumberline Law of Symmetry.}{6}{section*.13}\protected@file@percent }
\@writefile{toc}{\defcounter {refsection}{0}\relax }\@writefile{toc}{\contentsline {paragraph}{\nonumberline Law of Common Fate.}{6}{section*.14}\protected@file@percent }
\@writefile{toc}{\defcounter {refsection}{0}\relax }\@writefile{toc}{\contentsline {paragraph}{\nonumberline Law of Continuity.}{6}{section*.15}\protected@file@percent }
\@writefile{lof}{\defcounter {refsection}{0}\relax }\@writefile{lof}{\contentsline {figure}{\numberline {\relax 1.5}{\ignorespaces Campbell and Robson chart. Version from \cite {doi:10.1111/cgf.12001}. \relax }}{7}{figure.caption.16}\protected@file@percent }
\newlabel{campbell}{{\relax 1.5}{7}{Campbell and Robson chart. Version from \cite {doi:10.1111/cgf.12001}. \relax }{figure.caption.16}{}}
\@writefile{lof}{\defcounter {refsection}{0}\relax }\@writefile{lof}{\contentsline {figure}{\numberline {\relax 1.6}{\ignorespaces Erperiments performed by Jarbus \cite {Jarbus} on how different examination tasks change eye movements. Illustration from M. Corsini et al. \cite {doi:10.1111/cgf.12001}. \relax }}{7}{figure.caption.17}\protected@file@percent }
\newlabel{jab}{{\relax 1.6}{7}{Erperiments performed by Jarbus \cite {Jarbus} on how different examination tasks change eye movements. Illustration from M. Corsini et al. \cite {doi:10.1111/cgf.12001}. \relax }{figure.caption.17}{}}
\BKM@entry{id=9,dest={73756273656374696F6E2E312E332E32},srcline={109}}{436F6D707574657220766973696F6E}
\BKM@entry{id=10,dest={73756273656374696F6E2E312E332E33},srcline={112}}{4578706C6F6974696E672068756D616E2076697375616C2070657263657074696F6E}
\abx@aux@cite{DBLP:journals/corr/abs-1801-03924}
\abx@aux@segm{0}{0}{DBLP:journals/corr/abs-1801-03924}
\BKM@entry{id=11,dest={73656374696F6E2E312E34},srcline={115}}{436F6D62696E6174696F6E206F662068756D616E2070657263657074696F6E207769746820736F706869737469636174656420726570726573656E746174696F6E7320666F72204E6F726D616C73}
\@writefile{toc}{\defcounter {refsection}{0}\relax }\@writefile{toc}{\contentsline {subsection}{\numberline {1.3.2}Computer vision}{8}{subsection.1.3.2}\protected@file@percent }
\@writefile{toc}{\defcounter {refsection}{0}\relax }\@writefile{toc}{\contentsline {subsection}{\numberline {1.3.3}Exploiting human visual perception}{8}{subsection.1.3.3}\protected@file@percent }
\@writefile{toc}{\defcounter {refsection}{0}\relax }\@writefile{toc}{\contentsline {section}{\numberline {1.4}Combination of human perception with sophisticated representations for Normals}{8}{section.1.4}\protected@file@percent }
\BKM@entry{id=12,dest={636861707465722E32},srcline={4}}{52656C6174656420576F726B}
\BKM@entry{id=13,dest={73656374696F6E2E322E31},srcline={6}}{466978696E67204E6F726D616C204D61702046696C746572696E67}
\abx@aux@cite{antialiasingBumpMaps}
\abx@aux@segm{0}{0}{antialiasingBumpMaps}
\abx@aux@cite{10.1145/2448196.2448217}
\abx@aux@segm{0}{0}{10.1145/2448196.2448217}
\abx@aux@cite{Toksvig2005MipmappingNM}
\abx@aux@segm{0}{0}{Toksvig2005MipmappingNM}
\BKM@entry{id=14,dest={73656374696F6E2E322E32},srcline={15}}{496D69746174696E672068756D616E2070657263657074696F6E}
\abx@aux@cite{doi:10.1111/cgf.12001}
\abx@aux@segm{0}{0}{doi:10.1111/cgf.12001}
\@writefile{toc}{\defcounter {refsection}{0}\relax }\@writefile{toc}{\contentsline {chapter}{\numberline {2}Related Work}{9}{chapter.2}\protected@file@percent }
\@writefile{lof}{\defcounter {refsection}{0}\relax }\@writefile{lof}{\addvspace {10\p@ }}
\@writefile{lot}{\defcounter {refsection}{0}\relax }\@writefile{lot}{\addvspace {10\p@ }}
\@writefile{lol}{\defcounter {refsection}{0}\relax }\@writefile{lol}{\addvspace {10\p@ }}
\@writefile{loa}{\defcounter {refsection}{0}\relax }\@writefile{loa}{\addvspace {10\p@ }}
\newlabel{chapter:related_work}{{2}{9}{Related Work}{chapter.2}{}}
\@writefile{toc}{\defcounter {refsection}{0}\relax }\@writefile{toc}{\contentsline {section}{\numberline {2.1}Fixing Normal Map Filtering}{9}{section.2.1}\protected@file@percent }
\newlabel{Toksvig005}{{2.1}{9}{Fixing Normal Map Filtering}{section.2.1}{}}
\abx@aux@cite{1284395}
\abx@aux@segm{0}{0}{1284395}
\abx@aux@cite{doi:10.1007/s11760-009-0144-1}
\abx@aux@segm{0}{0}{doi:10.1007/s11760-009-0144-1}
\abx@aux@cite{VSNR}
\abx@aux@segm{0}{0}{VSNR}
\abx@aux@cite{FSIM}
\abx@aux@segm{0}{0}{FSIM}
\BKM@entry{id=15,dest={73656374696F6E2E322E33},srcline={29}}{5573696E67207065726365707475616C206E6F74696F6E73}
\abx@aux@cite{percLOD}
\abx@aux@segm{0}{0}{percLOD}
\@writefile{toc}{\defcounter {refsection}{0}\relax }\@writefile{toc}{\contentsline {section}{\numberline {2.2}Imitating human perception}{10}{section.2.2}\protected@file@percent }
\abx@aux@cite{1049-5258}
\abx@aux@segm{0}{0}{1049-5258}
\abx@aux@cite{DBLP:journals/corr/abs-1801-03924}
\abx@aux@segm{0}{0}{DBLP:journals/corr/abs-1801-03924}
\abx@aux@cite{zhang2018single}
\abx@aux@segm{0}{0}{zhang2018single}
\abx@aux@cite{ren2019musicoriented}
\abx@aux@segm{0}{0}{ren2019musicoriented}
\@writefile{toc}{\defcounter {refsection}{0}\relax }\@writefile{toc}{\contentsline {section}{\numberline {2.3}Using perceptual notions}{11}{section.2.3}\protected@file@percent }
\BKM@entry{id=16,dest={636861707465722E33},srcline={14}}{4672657175656E637920446F6D61696E204E6F726D616C204D61702046696C746572696E67}
\BKM@entry{id=17,dest={73656374696F6E2E332E31},srcline={16}}{4261636B67726F756E64}
\abx@aux@cite{10.1145/1275808.1276412}
\abx@aux@segm{0}{0}{10.1145/1275808.1276412}
\@writefile{toc}{\defcounter {refsection}{0}\relax }\@writefile{toc}{\contentsline {chapter}{\numberline {3}Frequency Domain Normal Map Filtering}{12}{chapter.3}\protected@file@percent }
\@writefile{lof}{\defcounter {refsection}{0}\relax }\@writefile{lof}{\addvspace {10\p@ }}
\@writefile{lot}{\defcounter {refsection}{0}\relax }\@writefile{lot}{\addvspace {10\p@ }}
\@writefile{lol}{\defcounter {refsection}{0}\relax }\@writefile{lol}{\addvspace {10\p@ }}
\@writefile{loa}{\defcounter {refsection}{0}\relax }\@writefile{loa}{\addvspace {10\p@ }}
\newlabel{chapter:reimplementation}{{3}{12}{Frequency Domain Normal Map Filtering}{chapter.3}{}}
\@writefile{toc}{\defcounter {refsection}{0}\relax }\@writefile{toc}{\contentsline {section}{\numberline {3.1}Background}{12}{section.3.1}\protected@file@percent }
\abx@aux@cite{5595925}
\abx@aux@segm{0}{0}{5595925}
\abx@aux@cite{5595925}
\abx@aux@segm{0}{0}{5595925}
\@writefile{lof}{\defcounter {refsection}{0}\relax }\@writefile{lof}{\contentsline {figure}{\numberline {\relax 3.1}{\ignorespaces Illustration of a von Mises-Fisher distribution, from \cite {5595925}.\relax }}{13}{figure.caption.18}\protected@file@percent }
\newlabel{vmFimage}{{\relax 3.1}{13}{Illustration of a von Mises-Fisher distribution, from \cite {5595925}.\relax }{figure.caption.18}{}}
\newlabel{EQ:VMF}{{\relax 3.1}{13}{Background}{equation.3.1.1}{}}
\newlabel{EQ:C}{{\relax 3.2}{13}{Background}{equation.3.1.2}{}}
\newlabel{EQ:MIX}{{\relax 3.3}{13}{Background}{equation.3.1.3}{}}
\newlabel{EQ:APPROX}{{\relax 3.4}{14}{Background}{equation.3.1.4}{}}
\newlabel{EQ:roughness}{{\relax 3.5}{14}{Background}{equation.3.1.5}{}}
\newlabel{alg}{{1}{15}{Background}{algocf.1}{}}
\@writefile{loa}{\defcounter {refsection}{0}\relax }\@writefile{loa}{\contentsline {algocf}{\numberline {1}{\ignorespaces The modified Spherical EM algorithm. Inputs are normals $n_i$ and feature vectors $y_i$ in a texel. Outputs are movMF parameters $\alpha $, $\kappa $, $\mu $ and a feature vector $y$ for each lobe $j$ .\relax }}{15}{algocf.1}\protected@file@percent }
\BKM@entry{id=18,dest={73656374696F6E2E332E32},srcline={113}}{496D706C656D656E746174696F6E}
\abx@aux@cite{BSD}
\abx@aux@segm{0}{0}{BSD}
\@writefile{toc}{\defcounter {refsection}{0}\relax }\@writefile{toc}{\contentsline {section}{\numberline {3.2}Implementation}{16}{section.3.2}\protected@file@percent }
\newlabel{implementation}{{3.2}{16}{Implementation}{section.3.2}{}}
\BKM@entry{id=19,dest={73756273656374696F6E2E332E322E31},srcline={128}}{446966666572656E636520696E20696D706C656D656E746174696F6E73}
\abx@aux@cite{CT}
\abx@aux@segm{0}{0}{CT}
\abx@aux@cite{10.1145/383259.383271}
\abx@aux@segm{0}{0}{10.1145/383259.383271}
\@writefile{toc}{\defcounter {refsection}{0}\relax }\@writefile{toc}{\contentsline {subsection}{\numberline {3.2.1}Difference in implementations}{17}{subsection.3.2.1}\protected@file@percent }
\newlabel{shader}{{2}{18}{Difference in implementations}{algocf.2}{}}
\@writefile{loa}{\defcounter {refsection}{0}\relax }\@writefile{loa}{\contentsline {algocf}{\numberline {2}{\ignorespaces Shader pseudo code for Torrance-Sparrow lighting with vMFs. \relax }}{18}{algocf.2}\protected@file@percent }
\BKM@entry{id=20,dest={73656374696F6E2E332E33},srcline={176}}{4576616C756174696F6E}
\abx@aux@cite{Bunny}
\abx@aux@segm{0}{0}{Bunny}
\BKM@entry{id=21,dest={73756273656374696F6E2E332E332E31},srcline={181}}{436F6D70617269736F6E206D6574686F6473}
\@writefile{toc}{\defcounter {refsection}{0}\relax }\@writefile{toc}{\contentsline {section}{\numberline {3.3}Evaluation}{19}{section.3.3}\protected@file@percent }
\@writefile{toc}{\defcounter {refsection}{0}\relax }\@writefile{toc}{\contentsline {subsection}{\numberline {3.3.1}Comparison methods}{19}{subsection.3.3.1}\protected@file@percent }
\newlabel{compethod}{{3.3.1}{19}{Comparison methods}{subsection.3.3.1}{}}
\BKM@entry{id=22,dest={73756273656374696F6E2E332E332E32},srcline={191}}{436F6D70617269736F6E}
\@writefile{toc}{\defcounter {refsection}{0}\relax }\@writefile{toc}{\contentsline {subsection}{\numberline {3.3.2}Comparison}{20}{subsection.3.3.2}\protected@file@percent }
\@writefile{lof}{\defcounter {refsection}{0}\relax }\@writefile{lof}{\contentsline {figure}{\numberline {\relax 3.2}{\ignorespaces Distributions of Losses, generated with 50 buckets of equal size. The tables contain corresponding mean and variance, best is bold. Lower means better.\relax }}{21}{figure.caption.19}\protected@file@percent }
\newlabel{distributions1}{{\relax 3.2}{21}{Distributions of Losses, generated with 50 buckets of equal size. The tables contain corresponding mean and variance, best is bold. Lower means better.\relax }{figure.caption.19}{}}
\@writefile{lof}{\defcounter {refsection}{0}\relax }\@writefile{lof}{\contentsline {figure}{\numberline {\relax 3.3}{\ignorespaces Close view and samples showing big differences in lit Area. From left to right: Groundtruth, mipmap, standard, vmf and vmfPy. Best viewed with strong zoom. The microseed for each sample is on the left. \relax }}{23}{figure.caption.20}\protected@file@percent }
\newlabel{ilumarea}{{\relax 3.3}{23}{Close view and samples showing big differences in lit Area. From left to right: Groundtruth, mipmap, standard, vmf and vmfPy. Best viewed with strong zoom. The microseed for each sample is on the left. \relax }{figure.caption.20}{}}
\@writefile{lof}{\defcounter {refsection}{0}\relax }\@writefile{lof}{\contentsline {figure}{\numberline {\relax 3.4}{\ignorespaces Samples showing other noticeable effects. From left to right: Groundtruth, mipmap, standard, vmf and vmfPy. Best viewed with strong zoom. The microseed for each sample is on the left. \relax }}{24}{figure.caption.21}\protected@file@percent }
\newlabel{othereffects}{{\relax 3.4}{24}{Samples showing other noticeable effects. From left to right: Groundtruth, mipmap, standard, vmf and vmfPy. Best viewed with strong zoom. The microseed for each sample is on the left. \relax }{figure.caption.21}{}}
\BKM@entry{id=23,dest={636861707465722E34},srcline={4}}{5065726365707475616C204C6576656C206F662044657461696C}
\BKM@entry{id=24,dest={73656374696F6E2E342E31},srcline={10}}{5065726365707475616C204C6F7373}
\abx@aux@cite{1049-5258}
\abx@aux@segm{0}{0}{1049-5258}
\abx@aux@cite{DBLP:journals/corr/abs-1801-03924}
\abx@aux@segm{0}{0}{DBLP:journals/corr/abs-1801-03924}
\@writefile{toc}{\defcounter {refsection}{0}\relax }\@writefile{toc}{\contentsline {chapter}{\numberline {4}Perceptual Level of Detail}{25}{chapter.4}\protected@file@percent }
\@writefile{lof}{\defcounter {refsection}{0}\relax }\@writefile{lof}{\addvspace {10\p@ }}
\@writefile{lot}{\defcounter {refsection}{0}\relax }\@writefile{lot}{\addvspace {10\p@ }}
\@writefile{lol}{\defcounter {refsection}{0}\relax }\@writefile{lol}{\addvspace {10\p@ }}
\@writefile{loa}{\defcounter {refsection}{0}\relax }\@writefile{loa}{\addvspace {10\p@ }}
\newlabel{chapter:perceptual loss}{{4}{25}{Perceptual Level of Detail}{chapter.4}{}}
\@writefile{toc}{\defcounter {refsection}{0}\relax }\@writefile{toc}{\contentsline {section}{\numberline {4.1}Perceptual Loss}{25}{section.4.1}\protected@file@percent }
\BKM@entry{id=25,dest={73656374696F6E2E342E32},srcline={29}}{54657874757265206F7074696D697A6174696F6E}
\abx@aux@cite{10.1145/2448196.2448217}
\abx@aux@segm{0}{0}{10.1145/2448196.2448217}
\BKM@entry{id=26,dest={73756273656374696F6E2E342E322E31},srcline={33}}{4D6F64656C}
\@writefile{toc}{\defcounter {refsection}{0}\relax }\@writefile{toc}{\contentsline {subsubsection}{\nonumberline Use cases}{26}{section*.22}\protected@file@percent }
\@writefile{toc}{\defcounter {refsection}{0}\relax }\@writefile{toc}{\contentsline {subsubsection}{\nonumberline Use of the perceptual loss}{26}{section*.23}\protected@file@percent }
\@writefile{toc}{\defcounter {refsection}{0}\relax }\@writefile{toc}{\contentsline {section}{\numberline {4.2}Texture optimization}{26}{section.4.2}\protected@file@percent }
\BKM@entry{id=27,dest={73756273656374696F6E2E342E322E32},srcline={41}}{44656665727265642053686164696E67}
\abx@aux@cite{10.1145/54852.378468}
\abx@aux@segm{0}{0}{10.1145/54852.378468}
\abx@aux@cite{10.1145/97879.97901}
\abx@aux@segm{0}{0}{10.1145/97879.97901}
\@writefile{lof}{\defcounter {refsection}{0}\relax }\@writefile{lof}{\contentsline {figure}{\numberline {\relax 4.1}{\ignorespaces Model. Arrows show flow of information. \relax }}{27}{figure.caption.24}\protected@file@percent }
\newlabel{mod}{{\relax 4.1}{27}{Model. Arrows show flow of information. \relax }{figure.caption.24}{}}
\@writefile{toc}{\defcounter {refsection}{0}\relax }\@writefile{toc}{\contentsline {subsection}{\numberline {4.2.1}Model}{27}{subsection.4.2.1}\protected@file@percent }
\@writefile{toc}{\defcounter {refsection}{0}\relax }\@writefile{toc}{\contentsline {subsection}{\numberline {4.2.2}Deferred Shading}{27}{subsection.4.2.2}\protected@file@percent }
\abx@aux@cite{deferred}
\abx@aux@segm{0}{0}{deferred}
\@writefile{lof}{\defcounter {refsection}{0}\relax }\@writefile{lof}{\contentsline {figure}{\numberline {\relax 4.2}{\ignorespaces One sample of the evaluation dataset. From left to right: Groundtruth, view direction, light direction, normal, tangent, texture coordinates, warped lobe (only $\alpha r$ is shown). \relax }}{29}{figure.caption.25}\protected@file@percent }
\newlabel{sample}{{\relax 4.2}{29}{One sample of the evaluation dataset. From left to right: Groundtruth, view direction, light direction, normal, tangent, texture coordinates, warped lobe (only $\alpha r$ is shown). \relax }{figure.caption.25}{}}
\BKM@entry{id=28,dest={73756273656374696F6E2E342E322E33},srcline={79}}{446966666572656E746961626C65204D69704D617070696E67}
\@writefile{lof}{\defcounter {refsection}{0}\relax }\@writefile{lof}{\contentsline {figure}{\numberline {\relax 4.3}{\ignorespaces Examples for mipmapping process. From top to bottom: Warped lobes, weight tensor, warped and weighted lobes. Only $\alpha r$ is shown. Highest LODs are truncated as they are not contributing. \relax }}{30}{figure.caption.26}\protected@file@percent }
\newlabel{mipsample}{{\relax 4.3}{30}{Examples for mipmapping process. From top to bottom: Warped lobes, weight tensor, warped and weighted lobes. Only $\alpha r$ is shown. Highest LODs are truncated as they are not contributing. \relax }{figure.caption.26}{}}
\@writefile{toc}{\defcounter {refsection}{0}\relax }\@writefile{toc}{\contentsline {subsection}{\numberline {4.2.3}Differentiable MipMapping}{30}{subsection.4.2.3}\protected@file@percent }
\BKM@entry{id=29,dest={73756273656374696F6E2E342E322E34},srcline={91}}{4F7074696D697A6174696F6E}
\@writefile{lot}{\defcounter {refsection}{0}\relax }\@writefile{lot}{\contentsline {table}{\numberline {\relax 4.1}{\ignorespaces Hardware specifications \relax }}{31}{table.caption.28}\protected@file@percent }
\newlabel{hardware}{{\relax 4.1}{31}{Hardware specifications \relax }{table.caption.28}{}}
\@writefile{toc}{\defcounter {refsection}{0}\relax }\@writefile{toc}{\contentsline {subsection}{\numberline {4.2.4}Optimization}{31}{subsection.4.2.4}\protected@file@percent }
\@writefile{toc}{\defcounter {refsection}{0}\relax }\@writefile{toc}{\contentsline {subsubsection}{\nonumberline Setup}{31}{section*.27}\protected@file@percent }
\@writefile{lof}{\defcounter {refsection}{0}\relax }\@writefile{lof}{\contentsline {figure}{\numberline {\relax 4.4}{\ignorespaces Comparison of Distributions to number of Pixels. \relax }}{33}{figure.caption.30}\protected@file@percent }
\newlabel{ND}{{\relax 4.4}{33}{Comparison of Distributions to number of Pixels. \relax }{figure.caption.30}{}}
\@writefile{toc}{\defcounter {refsection}{0}\relax }\@writefile{toc}{\contentsline {subsubsection}{\nonumberline Data generation}{33}{section*.29}\protected@file@percent }
\@writefile{toc}{\defcounter {refsection}{0}\relax }\@writefile{toc}{\contentsline {subsubsection}{\nonumberline Training}{34}{section*.31}\protected@file@percent }
\BKM@entry{id=30,dest={73756273656374696F6E2E342E322E35},srcline={192}}{436F6D70617269736F6E206F6620616C7465726E617469766573}
\@writefile{lof}{\defcounter {refsection}{0}\relax }\@writefile{lof}{\contentsline {figure}{\numberline {\relax 4.5}{\ignorespaces Losses of evaluation set during training and alignment. Logarithmic scale for losses.\relax }}{35}{figure.caption.32}\protected@file@percent }
\newlabel{trainEval}{{\relax 4.5}{35}{Losses of evaluation set during training and alignment. Logarithmic scale for losses.\relax }{figure.caption.32}{}}
\@writefile{toc}{\defcounter {refsection}{0}\relax }\@writefile{toc}{\contentsline {subsection}{\numberline {4.2.5}Comparison of alternatives}{35}{subsection.4.2.5}\protected@file@percent }
\@writefile{lof}{\defcounter {refsection}{0}\relax }\@writefile{lof}{\contentsline {figure}{\numberline {\relax 4.6}{\ignorespaces Losses of each micro batch during training.\relax }}{36}{figure.caption.33}\protected@file@percent }
\newlabel{traintrain}{{\relax 4.6}{36}{Losses of each micro batch during training.\relax }{figure.caption.33}{}}
\BKM@entry{id=31,dest={636861707465722E35},srcline={39}}{4576616C756174696F6E}
\BKM@entry{id=32,dest={73656374696F6E2E352E31},srcline={41}}{537461746973746963616C204576616C756174696F6E}
\abx@aux@cite{meanwiki}
\abx@aux@segm{0}{0}{meanwiki}
\abx@aux@cite{meanwiki}
\abx@aux@segm{0}{0}{meanwiki}
\BKM@entry{id=33,dest={73656374696F6E2E352E32},srcline={118}}{436173652053747564696573}
\BKM@entry{id=34,dest={73756273656374696F6E2E352E322E31},srcline={120}}{436F6D70617269736F6E206265747765656E20454D20616E6420547261696E696E67}
\@writefile{toc}{\defcounter {refsection}{0}\relax }\@writefile{toc}{\contentsline {chapter}{\numberline {5}Evaluation}{37}{chapter.5}\protected@file@percent }
\@writefile{lof}{\defcounter {refsection}{0}\relax }\@writefile{lof}{\addvspace {10\p@ }}
\@writefile{lot}{\defcounter {refsection}{0}\relax }\@writefile{lot}{\addvspace {10\p@ }}
\@writefile{lol}{\defcounter {refsection}{0}\relax }\@writefile{lol}{\addvspace {10\p@ }}
\@writefile{loa}{\defcounter {refsection}{0}\relax }\@writefile{loa}{\addvspace {10\p@ }}
\newlabel{chapter:evaluation}{{5}{37}{Evaluation}{chapter.5}{}}
\@writefile{toc}{\defcounter {refsection}{0}\relax }\@writefile{toc}{\contentsline {section}{\numberline {5.1}Statistical Evaluation}{37}{section.5.1}\protected@file@percent }
\@writefile{lof}{\defcounter {refsection}{0}\relax }\@writefile{lof}{\contentsline {figure}{\numberline {\relax 5.1}{\ignorespaces Distributions of Losses, generated with 200 buckets of equal size. The tables contain corresponding mean and variance, best is \textbf  {bold}. Lower means better.\relax }}{38}{figure.caption.34}\protected@file@percent }
\newlabel{distributions2}{{\relax 5.1}{38}{Distributions of Losses, generated with 200 buckets of equal size. The tables contain corresponding mean and variance, best is \textbf {bold}. Lower means better.\relax }{figure.caption.34}{}}
\@writefile{lof}{\defcounter {refsection}{0}\relax }\@writefile{lof}{\contentsline {figure}{\numberline {\relax 5.2}{\ignorespaces Comparision of mean, median and mode. From Wikipedia \cite {meanwiki}.\relax }}{39}{figure.caption.35}\protected@file@percent }
\newlabel{meancomp}{{\relax 5.2}{39}{Comparision of mean, median and mode. From Wikipedia \cite {meanwiki}.\relax }{figure.caption.35}{}}
\@writefile{toc}{\defcounter {refsection}{0}\relax }\@writefile{toc}{\contentsline {section}{\numberline {5.2}Case Studies}{39}{section.5.2}\protected@file@percent }
\@writefile{toc}{\defcounter {refsection}{0}\relax }\@writefile{toc}{\contentsline {subsection}{\numberline {5.2.1}Comparison between EM and Training}{39}{subsection.5.2.1}\protected@file@percent }
\@writefile{lof}{\defcounter {refsection}{0}\relax }\@writefile{lof}{\contentsline {figure}{\numberline {\relax 5.3}{\ignorespaces Comparisions between sEM and training resuts. From left to right: Groundtruth, vmf, vmfPy, preMipMappedPy, preOptimizedPy. Best viewed with strong zoom. The microseed for each sample is on the left. \relax }}{40}{figure.caption.36}\protected@file@percent }
\newlabel{recomp}{{\relax 5.3}{40}{Comparisions between sEM and training resuts. From left to right: Groundtruth, vmf, vmfPy, preMipMappedPy, preOptimizedPy. Best viewed with strong zoom. The microseed for each sample is on the left. \relax }{figure.caption.36}{}}
\BKM@entry{id=35,dest={73756273656374696F6E2E352E322E32},srcline={138}}{436F6D70617269736F6E206265747765656E20696E697469616C69736174696F6E20746563686E6971756573}
\@writefile{toc}{\defcounter {refsection}{0}\relax }\@writefile{toc}{\contentsline {subsection}{\numberline {5.2.2}Comparison between initialisation techniques}{41}{subsection.5.2.2}\protected@file@percent }
\@writefile{lof}{\defcounter {refsection}{0}\relax }\@writefile{lof}{\contentsline {figure}{\numberline {\relax 5.4}{\ignorespaces Comparisions between different initialisation techniques. From left to right: Groundtruth, naivePerceptualPy, naiveMSEPy, preMipMappedPy, preOptimizedPy. Best viewed with strong zoom. The microseed for each sample is on the left. \relax }}{42}{figure.caption.37}\protected@file@percent }
\newlabel{traincomp}{{\relax 5.4}{42}{Comparisions between different initialisation techniques. From left to right: Groundtruth, naivePerceptualPy, naiveMSEPy, preMipMappedPy, preOptimizedPy. Best viewed with strong zoom. The microseed for each sample is on the left. \relax }{figure.caption.37}{}}
\BKM@entry{id=36,dest={73756273656374696F6E2E352E322E33},srcline={158}}{436F6D70617269736F6E206265747765656E20626573742063616E64696461746573}
\@writefile{toc}{\defcounter {refsection}{0}\relax }\@writefile{toc}{\contentsline {subsection}{\numberline {5.2.3}Comparison between best candidates}{43}{subsection.5.2.3}\protected@file@percent }
\@writefile{lof}{\defcounter {refsection}{0}\relax }\@writefile{lof}{\contentsline {figure}{\numberline {\relax 5.5}{\ignorespaces Comparisions between best resuts. From left to right: Groundtruth, naiveMSEPy, preOptimizedPy, mipmap and standard. Best viewed with strong zoom. The microseed for each sample is on the left. \relax }}{44}{figure.caption.38}\protected@file@percent }
\newlabel{bestcomp}{{\relax 5.5}{44}{Comparisions between best resuts. From left to right: Groundtruth, naiveMSEPy, preOptimizedPy, mipmap and standard. Best viewed with strong zoom. The microseed for each sample is on the left. \relax }{figure.caption.38}{}}
\BKM@entry{id=37,dest={636861707465722E36},srcline={4}}{436F6E636C7573696F6E20616E642046757475726520576F726B}
\BKM@entry{id=38,dest={73656374696F6E2E362E31},srcline={6}}{436F6E636C7573696F6E}
\@writefile{toc}{\defcounter {refsection}{0}\relax }\@writefile{toc}{\contentsline {chapter}{\numberline {6}Conclusion and Future Work}{45}{chapter.6}\protected@file@percent }
\@writefile{lof}{\defcounter {refsection}{0}\relax }\@writefile{lof}{\addvspace {10\p@ }}
\@writefile{lot}{\defcounter {refsection}{0}\relax }\@writefile{lot}{\addvspace {10\p@ }}
\@writefile{lol}{\defcounter {refsection}{0}\relax }\@writefile{lol}{\addvspace {10\p@ }}
\@writefile{loa}{\defcounter {refsection}{0}\relax }\@writefile{loa}{\addvspace {10\p@ }}
\newlabel{chapter:conclusion}{{6}{45}{Conclusion and Future Work}{chapter.6}{}}
\@writefile{toc}{\defcounter {refsection}{0}\relax }\@writefile{toc}{\contentsline {section}{\numberline {6.1}Conclusion}{45}{section.6.1}\protected@file@percent }
\@writefile{toc}{\defcounter {refsection}{0}\relax }\@writefile{toc}{\contentsline {subsubsection}{\nonumberline What has been archived?}{45}{section*.39}\protected@file@percent }
\@writefile{toc}{\defcounter {refsection}{0}\relax }\@writefile{toc}{\contentsline {subsubsection}{\nonumberline What are remaining problems?}{45}{section*.40}\protected@file@percent }
\BKM@entry{id=39,dest={73656374696F6E2E362E32},srcline={18}}{46757475726520576F726B}
\@writefile{toc}{\defcounter {refsection}{0}\relax }\@writefile{toc}{\contentsline {section}{\numberline {6.2}Future Work}{46}{section.6.2}\protected@file@percent }
\BKM@entry{id=40,dest={636861707465722A2E3431},srcline={52}}{4C697374206F662046696775726573}
\@writefile{toc}{\defcounter {refsection}{0}\relax }\@writefile{toc}{\contentsline {chapter}{\nonumberline List of Figures}{47}{chapter*.41}\protected@file@percent }
\BKM@entry{id=41,dest={636861707465722A2E3432},srcline={53}}{4C697374206F66205461626C6573}
\@writefile{toc}{\defcounter {refsection}{0}\relax }\@writefile{toc}{\contentsline {chapter}{\nonumberline List of Tables}{49}{chapter*.42}\protected@file@percent }
\BKM@entry{id=42,dest={636861707465722A2E3433},srcline={55}}{4269626C696F677261706879}
\@writefile{toc}{\defcounter {refsection}{0}\relax }\@writefile{toc}{\contentsline {chapter}{\nonumberline Bibliography}{50}{chapter*.43}\protected@file@percent }
\@writefile{lof}{\defcounter {refsection}{0}\relax }\@writefile{lof}{\addvspace {10\p@ }}
\@writefile{lot}{\defcounter {refsection}{0}\relax }\@writefile{lot}{\addvspace {10\p@ }}
\@writefile{lol}{\defcounter {refsection}{0}\relax }\@writefile{lol}{\addvspace {10\p@ }}
\@writefile{loa}{\defcounter {refsection}{0}\relax }\@writefile{loa}{\addvspace {10\p@ }}
\abx@aux@refcontextdefaultsdone
\abx@aux@defaultrefcontext{0}{VSNR}{anyt/global//global/global}
\abx@aux@defaultrefcontext{0}{10.1145/563274.563323}{anyt/global//global/global}
\abx@aux@defaultrefcontext{0}{doi:10.1111/cgf.12001}{anyt/global//global/global}
\abx@aux@defaultrefcontext{0}{fourier}{anyt/global//global/global}
\abx@aux@defaultrefcontext{0}{1049-5258}{anyt/global//global/global}
\abx@aux@defaultrefcontext{0}{10.1145/54852.378468}{anyt/global//global/global}
\abx@aux@defaultrefcontext{0}{doi:10.1007/s11760-009-0144-1}{anyt/global//global/global}
\abx@aux@defaultrefcontext{0}{10.1145/1275808.1276412}{anyt/global//global/global}
\abx@aux@defaultrefcontext{0}{10.1145/2448196.2448217}{anyt/global//global/global}
\abx@aux@defaultrefcontext{0}{Jarbus}{anyt/global//global/global}
\abx@aux@defaultrefcontext{0}{5595925}{anyt/global//global/global}
\abx@aux@defaultrefcontext{0}{Bunny}{anyt/global//global/global}
\abx@aux@defaultrefcontext{0}{percLOD}{anyt/global//global/global}
\abx@aux@defaultrefcontext{0}{FSIM}{anyt/global//global/global}
\abx@aux@defaultrefcontext{0}{BSD}{anyt/global//global/global}
\abx@aux@defaultrefcontext{0}{ren2019musicoriented}{anyt/global//global/global}
\abx@aux@defaultrefcontext{0}{10.1145/383259.383271}{anyt/global//global/global}
\abx@aux@defaultrefcontext{0}{antialiasingBumpMaps}{anyt/global//global/global}
\abx@aux@defaultrefcontext{0}{10.1145/2010324.1964976}{anyt/global//global/global}
\abx@aux@defaultrefcontext{0}{10.1145/97879.97901}{anyt/global//global/global}
\abx@aux@defaultrefcontext{0}{Toksvig2005MipmappingNM}{anyt/global//global/global}
\abx@aux@defaultrefcontext{0}{CT}{anyt/global//global/global}
\abx@aux@defaultrefcontext{0}{meanwiki}{anyt/global//global/global}
\abx@aux@defaultrefcontext{0}{mipwiki}{anyt/global//global/global}
\abx@aux@defaultrefcontext{0}{deferred}{anyt/global//global/global}
\abx@aux@defaultrefcontext{0}{Gestalt}{anyt/global//global/global}
\abx@aux@defaultrefcontext{0}{10.1145/800059.801126}{anyt/global//global/global}
\abx@aux@defaultrefcontext{0}{clothLOD}{anyt/global//global/global}
\abx@aux@defaultrefcontext{0}{DBLP:journals/corr/abs-1801-03924}{anyt/global//global/global}
\abx@aux@defaultrefcontext{0}{1284395}{anyt/global//global/global}
\abx@aux@defaultrefcontext{0}{zhang2018single}{anyt/global//global/global}
\global\@namedef{scr@dte@chapter@lastmaxnumwidth}{9.85492pt}
\global\@namedef{scr@dte@section@lastmaxnumwidth}{18.0674pt}
\global\@namedef{scr@dte@subsection@lastmaxnumwidth}{26.27988pt}
\global\@namedef{scr@dte@table@lastmaxnumwidth}{18.0674pt}
\global\@namedef{scr@dte@figure@lastmaxnumwidth}{18.0674pt}
